Name,Email,Phone,Address 1,Address 2,Address 3,City,State,Postal Code,Country,4PCoreCoH,2PCoreCoH,ECCCoH,OKWCoH,SoloCoH,TP1CoH,TP2CoH,EBPCoH,ERPCoH,StuGCoH,WorldBuilderCoH,WarCrateCoH,WorldDomination,AllBundle,6PlayerDomination,FrenchCoH,GermanCoH,ItalianCoH,DutchCoH,SpanishCoH,PolishCoH,4PCorePaintCoH,ECCPaintCoH,OKWPaintCoH,EBPPaintCoH,ERPPaintCoH,StuGPaintCoH,MetalCoreCoH,MetalECCCoH,MetalOKWCoH,MetalEBPCoH,MetalERPCoH,MetalStuGCoH,
Scott James Pilkington,raptor.me@hotmail.com,211164865,62 Hoani Street Papanui,,,Christchurch,Canterbury,8052,NZ,0,1,0,1,0,0,0,1,0,1,0,0,0,0,0,0,0,0,0,0,0,0,0,0,0,0,0,0,0,0,0,0,0,
Robert Tiddy,roberttiddy@gmail.com,418863410,10 CASWELL ROAD,,,SPRING FARM,NSW,2570,AU,0,0,0,0,0,0,0,0,0,0,0,0,0,0,1,0,0,0,0,0,0,0,0,0,0,0,0,0,0,0,0,0,0,
Joe Crawford,josephbcrawford@yahoo.com,409010316,32 Mayne Street,,,Invermay,Tasmania,7248,AU,1,0,0,0,0,1,0,0,1,0,0,0,0,0,0,0,0,0,0,0,0,0,0,0,0,0,0,0,0,0,0,0,0,
Glen Harrison ,glen@harrison.bz,+61 404769485,30 Seven Mile Rd,,,Trafalgar,VIC,3824,AU,0,1,0,0,0,0,0,0,0,0,0,0,0,0,0,0,0,0,0,0,0,0,0,0,0,0,0,0,0,0,0,0,0,
Stephen Ripamonti,3matesgames@ozemail.com.au,415264710,40 Crompton Road,Parcel Locker 10012 47496,,Rockingham,WA,6168,AU,1,0,0,0,0,1,0,0,0,0,0,0,0,0,0,0,0,0,0,0,0,0,0,0,0,0,0,0,0,0,0,0,0,
Alan Spilhaus,alans@tomryan.co.nz,274811149,41 HINAU road,,,papakura,auckland,2113,NZ,1,0,0,0,1,1,0,0,0,0,0,0,0,0,0,0,0,0,0,0,0,0,0,0,0,0,0,0,0,0,0,0,0,
Braydon walker,bray1535@hotmail.com,416350273,Unit 5/123 Waterworks road ,,,Brisbane ,Queensland ,4060,AU,1,0,1,0,1,1,0,1,1,1,0,1,0,0,0,0,0,0,0,0,0,0,0,0,0,0,0,0,0,0,0,0,0,
Chris Burrell,chrisb94@live.com.au,404434157,9 Tanunda Court ,,,Caboolture,QLD,4510,AU,1,0,0,0,1,1,0,0,0,0,0,0,0,0,0,0,0,0,0,0,0,0,0,0,0,0,0,0,0,0,0,0,0,
corey albion,corey.albion@gmail.com,488578431,15 owarra ave east,,,Brisbane,Queensland,4055,AU,1,0,0,0,0,1,0,0,0,0,0,0,0,0,0,0,0,0,0,0,0,0,0,0,0,0,0,0,0,0,0,0,0,
Andras Deak,deak.andras.75@gmail.com,+61401536107,10 Patrol Street,,,Jamboree Heights,Queensland,4074,AU,1,0,1,1,1,1,1,1,1,1,1,0,0,0,0,0,0,0,0,0,0,0,0,0,0,0,0,0,0,0,0,0,0,
Dominic Marano,dmarano@live.com.au,+6119651744,29 Erindale Avenue Kensington,,,Bundaberg,Queensland,4670,AU,0,0,0,0,0,0,0,0,0,0,0,0,0,1,0,0,0,0,0,0,0,0,0,0,0,0,0,0,0,0,0,0,0,
John Bertolini,johnnyboyblade@hotmail.com,431875749,10 Chatton Street,,,Perth,WA,6059,AU,0,1,0,0,1,1,1,0,0,0,1,1,0,0,0,0,0,0,0,0,0,1,1,1,1,1,1,0,0,0,0,0,0,
Kyle Vella,kyleryan1526@hotmail.com,468762146,10 Northampton Cresent Caroline Springs,,,Melbourne,VIC,3023,AU,0,0,0,0,0,0,0,0,0,0,0,0,1,0,0,0,0,0,0,0,0,0,0,0,0,0,0,0,0,0,0,0,0,
Matt Anderson,matt.motorsport@gmail.com,402699719,22 Cromerty Place,,,Glenhaven,NSW,2156,AU,1,0,0,0,0,1,0,0,0,0,0,0,0,0,0,0,0,0,0,0,0,0,0,0,0,0,0,0,0,0,0,0,0,
Matt Ng,mng88ng@gmail.com,488586872,Hawthorn,,,Melbourne,Victoria,PO Box 1069,AU,1,0,0,0,1,0,0,0,0,0,0,0,0,0,0,0,0,0,0,0,0,0,0,0,0,0,0,0,0,0,0,0,0,
Nathan Hodges ,nathan.hodges@fonterra.com,278387826,520 Awakeri road Fonterra Edgecumbe ,Whakatane ,,Whakatane ,Bay of Plenty ,3120,NZ,2,0,1,1,1,1,1,2,2,1,1,1,0,0,0,0,0,0,0,0,0,0,0,0,0,0,0,0,0,0,0,0,0,
Grant Patterson,patterson.grant@gmail.com,+61409127888,Parcel Locker 1000855854,54 Vicars St,,Mitchell,ACT,2911,AU,1,0,0,1,1,1,1,0,0,0,0,1,0,0,0,0,0,0,0,0,0,0,0,0,0,0,0,0,0,0,0,0,0,
Phillip Ward,philwardtse@gmail.com,407041664,1/2 Tooronga st,,,DANDENONG NORTH,VIC,3175,AU,0,0,0,0,1,1,0,0,0,0,0,0,0,0,0,0,0,0,0,0,0,1,1,1,1,1,1,0,0,0,0,0,0,
richard barton,richard.scott.barton@gmail.com,411754974,34 Mayfield St,,,wentworthville,nsw,2145,AU,0,0,0,0,0,0,0,0,0,0,0,0,1,0,0,0,0,0,0,0,0,0,0,0,0,0,0,0,0,0,0,0,0,
Russell CHARLES,rjcharles@hotmail.com,458255566,1 Caitlyn Court,,,Wantirna South,Vic,3152,AU,1,0,0,0,1,1,0,0,0,1,0,0,0,0,0,0,0,0,0,0,0,0,0,0,0,0,0,0,0,0,0,0,0,
Andrew Skurrie,skurriea@gmail.com,61481012453,49 Watsons Road,,,Newcomb,VIC,3219,AU,1,0,1,1,1,1,1,1,1,1,0,0,0,0,0,0,0,0,0,0,0,0,0,0,0,0,0,0,0,0,0,0,0,
Timothy bevan,timothybevan79@gmail.com,408029352,6 ronald st,,,Tenambit,Nsw,2323,AU,1,0,0,0,1,1,0,0,0,0,0,0,0,0,0,0,0,0,0,0,0,0,0,0,0,0,0,0,0,0,0,0,0,
BENJAMIN REEVE,woolyben1@yahoo.com.au,438345021,313 TOOGOOD ROAD,BAYVIEW HEIGHTS,,CAIRNS,QUEENSLAND,4868,AU,1,0,1,1,1,1,1,0,0,1,1,1,0,0,0,0,0,0,0,0,0,0,0,0,0,0,0,0,0,0,0,0,0,
Luke Mason,lukeymason.15@gmail.com,411346569,80 Stanton Grove,,,Lilydale,Victoria,3140,AU,0,0,0,0,2,2,2,0,0,0,2,2,0,0,0,0,0,0,0,0,0,0,0,0,0,0,0,2,2,2,2,2,2,
David Brittain,davn_n1@yahoo.com.au,+61 0409724664,39-47 Lot 46 Naylor Dr,,,Tamborine,Queensland,4270,AU,2,0,2,2,2,3,2,2,2,2,2,2,0,0,0,0,0,0,0,0,0,0,0,0,0,0,0,0,0,0,0,0,0,
Cameron Gunn,darkthunder2411@hotmail.com,21937907,16 Wangapeka Way,Aotea,Porirua,Wellington,Wellington,5024,NZ,1,0,1,1,1,1,1,1,1,0,0,0,0,0,0,0,0,0,0,0,0,0,0,0,0,0,0,0,0,0,0,0,0,
Andrew Doherty,andy_doherty@mac.com,21843834,60 Victoria Avenue,Victoria Avenue Medical Centre,,Invercargill,Southland,9810,NZ,1,0,0,0,1,1,0,1,1,0,0,0,0,0,0,0,0,0,0,0,0,0,0,0,0,0,0,0,0,0,0,0,0,
Nicholas Oldfield,oldfield.nicholas@gmail.com,419037316,126 Marlyn Road,,,South Hobart,Tasmania,7004,AU,1,0,0,0,1,1,0,1,1,0,0,0,0,0,0,0,0,0,0,0,0,0,0,0,0,0,0,0,0,0,0,0,0,
Greg Love,gregorylove@iinet.net.au,424061248,38C La Grange st,,,Perth,WA,6018,AU,1,0,0,0,2,1,0,1,1,0,0,0,0,0,0,0,0,0,0,0,0,0,0,0,0,0,0,0,0,0,0,0,0,
Mal Brick,malbrick@hotmail.com,431369094,5 Goolara Place,,,Jerrabomberra,NSW,2619,AU,1,0,0,0,1,1,0,1,1,0,0,0,0,0,0,0,0,0,0,0,0,0,0,0,0,0,0,0,0,0,0,0,0,
Frederic Arnaud,farnaudoz@yahoo.com.au,+61416735619,14A Little Riley St,,,Surry Hills,NSW,2010,AU,1,0,0,0,1,1,0,1,1,0,0,0,0,0,0,0,0,0,0,0,0,0,0,0,0,0,0,0,0,0,0,0,0,
Adem Kolar,adem.s.kolar@gmail.com,415865551,37 Portland Street,,,ENFIELD,NSW,2136,AU,1,0,1,0,1,1,0,1,1,1,0,1,0,0,0,0,0,0,0,0,0,0,0,0,0,0,0,0,0,0,0,0,0,
Tim Suarez,lynxx80@aol.com,452255423,14 Wormald Street,,,Symonston ,ACT,2609,AU,0,0,0,0,0,0,0,0,0,0,0,0,1,0,0,0,0,0,0,0,0,0,0,0,0,0,0,0,0,0,0,0,0,
Dean Palmer,deanpalmer212@gmail.com,413335041,26 Raglan Street,,,South Melbourne,Victoria,3205,AU,0,0,0,0,1,1,1,0,0,0,0,0,0,0,0,0,0,0,0,0,0,1,1,1,1,1,1,0,0,0,0,0,0,
Alexander Cubis,ac201724@outlook.com,+61418883675,5 Inelgah Road,,,Como,NSW,2226,AU,1,0,0,0,1,1,0,0,1,0,0,0,0,0,0,0,0,0,0,0,0,0,0,0,0,0,0,0,0,0,0,0,0,
Jack Warner,jackwarner96@hotmail.com,423529756,18 Koonawarra Court,,,Karana Downs,Queensland,4306,AU,1,0,0,0,1,1,0,0,1,0,0,0,0,0,0,0,0,0,0,0,0,0,0,0,0,0,0,0,0,0,0,0,0,
Jeremy Brown,brownjc94@gmail.com,490157161,4 Frognall Place,,,Canterbury,VIC,3126,AU,1,0,0,0,1,1,1,0,1,0,0,0,0,0,0,0,0,0,0,0,0,0,0,0,0,0,0,0,0,0,0,0,0,
Ryan Lindstrom,ryan_4_208@hotmail.com,425868464,38 O'Connell Lane,,,Caddens,New South Wales,2747,AU,0,0,0,0,0,0,0,0,0,1,0,0,0,1,0,0,0,0,0,0,0,0,0,0,0,0,0,0,0,0,0,0,0,
Jye Hewett,jye.hewett@hotmail.com,412688472,1305/7-9 Gibbons Street,,,Redfern,NSW,2016,AU,1,0,0,0,1,1,0,0,0,0,0,0,0,0,0,0,0,0,0,0,0,0,0,0,0,0,0,0,0,0,0,0,0,
Jared,jared.lawrence@hotmail.com,432611470,1A Longview Street,,,Eastwood,NSW,2122,AU,1,0,0,0,1,1,0,0,1,0,0,0,0,0,0,0,0,0,0,0,0,0,0,0,0,0,0,0,0,0,0,0,0,
John Kalemkeridis,john_keridis@hotmail.com,411404880,494 Grieve Parade,,,Altona North,Victoria,3025,AU,1,0,0,0,1,1,0,0,0,0,0,0,0,0,0,0,0,0,0,0,0,0,0,0,0,0,0,0,0,0,0,0,0,
Jeff Napp,jeffrey.j.weekes@gmail.com,+64 273696877,9 Dominion Park Street,Johnsonville ,,Wellington,Wellington,6037,NZ,1,1,1,1,1,1,0,1,1,1,0,0,0,0,0,0,0,0,0,0,0,0,0,0,0,0,0,0,0,0,0,0,0,
Darryl Adams,the_mtha_fka@hotmail.com,211773094,1/145 Bassett Road,Remuera,,Auckland,,1050,NZ,0,0,0,0,0,0,0,0,0,0,0,0,0,0,1,0,0,0,0,0,0,0,0,0,0,0,0,0,0,0,0,0,0,
Mitchell Kazmierczak,kazmierczak.mitchell@gmail.com,411303220,147/635 Gardeners Road,,,Mascot,New South Wales,2020,AU,2,0,1,2,1,1,1,2,1,1,1,1,0,0,0,0,0,0,0,0,0,0,0,0,0,0,0,0,0,0,0,0,0,
Luzern Tan,luzern_tan@hotmail.com,417137797,217 Waymouth Street,,,ADELAIDE,South Australia,5000,AU,0,1,1,1,1,1,1,1,1,0,0,0,0,0,0,0,0,0,0,0,0,0,0,0,0,0,0,1,0,0,0,0,0,
Jason Ronnfeldt,jasonronnie@yahoo.com,451667561,28 Allandale Street,,,Salisbury,Qld,4107,AU,2,0,1,1,1,1,1,1,1,1,0,1,0,0,0,0,0,0,0,0,0,0,0,0,0,0,0,0,0,0,0,0,0,
Kory Frankee,certain.privacy@protonmail.com,466655022,27D Oscar Street Brooklyn Park,,,Adelaide,South Australia,5032,AU,0,0,0,0,0,0,0,0,1,0,0,0,1,0,0,0,0,0,0,0,0,0,0,0,0,0,0,0,0,0,0,0,0,
Jacob Freitag,jake_freitag@hotmail.co.uk,223721066,29 Earl Street,,,Hillsborough Christchurch,Canterbury,8022,NZ,0,1,0,0,0,0,0,0,1,0,0,0,0,1,0,0,0,0,0,0,0,0,0,0,0,0,0,0,0,0,0,0,0,
Theo Wenzel,theoman222@gmail.com,+61 432 468 712,13/2A Jobson Avenue Mount Ousley,,,Wollongong,NSW,2519,AU,0,1,0,0,1,1,1,0,0,0,1,1,0,0,0,0,0,0,0,0,0,1,1,1,1,1,1,0,0,0,0,0,0,
Richard Henderson ,crimsondark@ozemail.com.au,418433996,8 Durnsford Way ,,,Armadale ,WA,6111,AU,1,1,1,1,1,1,0,0,0,0,0,0,0,0,0,0,0,0,0,0,0,0,0,0,0,0,0,0,0,0,0,0,0,
Mark Evans,mark.g.evans1983@gmail.com,+64275505308,7 Russell Rd,,,CHRISTCHURCH,Burnham,7600,NZ,0,0,0,0,0,0,0,0,0,0,0,0,0,0,1,0,0,0,0,0,0,0,0,0,0,0,0,0,0,0,0,0,0,
Michael Broer,broer@internode.on.net,+610419832700,56 Cobbler Drive,,,Greenwith,South Australia,5125,AU,0,0,0,0,0,0,0,0,0,0,0,0,1,0,0,0,0,0,0,0,0,0,0,0,0,0,0,0,0,0,0,0,0,
Ben Thornton,bennyt1000@gmail.com,421977696,11 Gordonia Close,,,EDGEWORTH,NSW,2285,AU,0,0,0,0,0,0,0,0,0,0,0,0,0,1,0,0,0,0,0,0,0,0,0,0,0,0,0,0,0,0,0,0,0,
Drew Wretham,dwretham@gmail.com,401497453,19 Stephanie Street,,,Brisbane,QLD,4034,AU,0,0,0,0,0,0,0,0,0,0,0,0,1,0,0,0,0,0,0,0,0,0,0,0,0,0,0,0,0,0,0,0,0,
Martin Hinves,martin_hinves@hotmail.com,425266499,57 Terry Road,Townhouse 7,,Denistone,NSW,2114,AU,1,0,1,0,1,1,0,1,1,1,0,0,0,0,0,0,0,0,0,0,0,0,0,0,0,0,0,0,0,0,0,0,0,
Tristan Goodwin,tristangoodwin@gmail.com,409313275,PoBox 128,,,Thredbo,New South Wales,2625,AU,0,0,0,0,0,0,0,0,0,0,0,0,0,1,0,0,0,0,0,0,0,0,0,0,0,0,0,0,0,0,0,0,0,
Warren Howe,wazzahowe@hotmail.com,642102201973,47 Lakewood Avenue,Churton Park,,Wellington,,6037,NZ,0,0,0,0,0,0,0,0,0,0,0,0,1,0,0,0,0,0,0,0,0,0,0,0,0,0,0,0,0,0,0,0,0,
Anning LIU,liuay002@mac.com,402605961,Suite 1 1 Central Avenue ,Top Education Institute,,EVELEIGH,New South Wales,2015,AU,1,0,1,1,1,1,1,2,1,1,0,0,0,0,0,0,0,0,0,0,0,0,0,0,0,0,0,0,0,0,0,0,0,
Damian Croft,wulfen2990@hotmail.com,409761414,8 scullin streeet,,,Toowoomba,Queensland,4350,AU,0,0,0,0,1,1,0,1,0,0,0,0,0,0,0,0,0,0,0,0,0,1,1,0,0,1,0,0,0,0,0,0,0,
paul taylor,pt88jr1@hotmail.com,738415372,28/7 chamberlain ave   rochedale sth ,,,brisbane,Queensland,4123,AU,1,0,1,1,1,1,1,1,1,1,0,0,0,0,0,0,0,0,0,0,0,0,0,0,0,0,0,0,0,0,0,0,0,
Adam Davenport,a.p.davenport@outlook.com,432108100,2 Hilltop Crescent Huntfield,,,Adelaide,South Australia,5163,AU,1,0,1,0,1,1,0,1,1,0,1,1,0,0,0,0,0,0,0,0,0,0,0,0,0,0,0,0,0,0,0,0,0,
Stephen Liistro,step-hen-liis@hotmail.com,+61416447188,11 Olsen Retreat,,,Caroline Springs,VIC,3023,AU,1,0,1,0,1,1,0,1,1,0,0,0,0,0,0,0,0,0,0,0,0,0,0,0,0,0,0,0,0,0,0,0,0,
Richard Gaunt,rgaunt@benefitmanagement.com.au,+61419862726,4 Turaco Court,,,Burleigh Waters,QLD,4220,AU,0,0,0,0,0,0,0,0,0,0,0,0,1,0,0,0,0,0,0,0,0,0,0,0,0,0,0,0,0,0,0,0,0,
Simon Springall,jag__07@hotmail.com,408853031,6 Robbie Drive,,,Reynella East,South Australia,5161,AU,1,0,1,0,1,1,1,2,1,1,0,0,0,0,0,0,0,0,0,0,0,0,0,0,0,0,0,0,0,0,0,0,0,
Matthew JR Little,mjrlittle14@gmail.com,021 022 92504,Level 1 - 66 Dixon Street,Te Aro,,Wellington,OTHER,6011,NZ,1,0,1,0,1,1,0,0,1,0,0,0,0,0,0,0,0,0,0,0,0,0,0,0,0,0,0,0,0,0,0,0,0,
Karl von Randow,karl@xk72.com,21421314,28 Arnold St,Grey Lynn,,Auckland,Auckland,1021,NZ,1,0,1,0,1,1,0,0,1,0,0,0,0,0,0,0,0,0,0,0,0,0,0,0,0,0,0,0,0,0,0,0,0,
Jason Shand,jasdude@internode.on.net,477749369,51 Dickson St,,,Bald Hills,Qld,4036,AU,0,1,0,0,1,1,1,0,0,0,0,1,0,0,0,0,0,0,0,0,0,1,1,1,1,1,1,0,0,0,0,0,0,
Don Bui,donbuibui@hotmail.com,452626821,126,539 St Kilda Road,,Melbourne,Victoria ,3004,AU,0,0,0,0,0,0,0,0,0,0,0,0,0,1,0,0,0,0,0,0,0,0,0,0,0,0,0,0,0,0,0,0,0,
Morgan Pierce,morgan.pierce105@gmail.com,412269403,167/53 Eyre Street Kingston,,,Canberra,ACT,2604,AU,1,0,1,0,1,1,0,0,1,0,0,0,0,0,0,0,0,0,0,0,0,0,0,0,0,0,0,0,0,0,0,0,0,
Natanel irvian,natan_boyz@hotmail.com,402936543,Shop 1020/2049 logan rd  upper mount  gravatt,Commonwealth bank garden city,,Brisbane,Qld,4122,AU,1,0,1,0,1,1,0,0,1,0,0,0,0,0,0,0,0,0,0,0,0,0,0,0,0,0,0,0,0,0,0,0,0,
Daniel Kurz,danboygomes@hotmail.com,+61 435 208 542,C/- Infinite Energy,Suite 3 Level 3,85 South Perth Esplanade,South Perth,Western Australia,6151,AU,0,0,0,0,0,0,0,0,0,0,0,0,1,0,0,0,0,0,0,0,0,0,0,0,0,0,0,0,0,0,0,0,0,
Robert Miller,milcoy26@bigpond.com,61433055236,11 John Olsen Drive,,,Kadina,South Australia,5554,AU,1,0,1,0,0,1,0,2,1,1,0,0,0,0,0,0,0,0,0,0,0,0,0,0,0,0,0,0,0,0,0,0,0,
Trent Sanfead,trentsanfead@iinet.net.au,61413450384,41 Agincourt Drive Willetton,,,Perth,Western Australia,6155,AU,1,0,1,0,0,1,1,1,1,1,0,0,0,0,0,0,0,0,0,0,0,0,0,0,0,0,0,0,0,0,0,0,0,
Adrian Dennien,adennien@gmail.com,419850695,3 Arthur Street,,,Seaford,VIC,3198,AU,2,0,0,0,1,2,1,2,2,1,0,0,0,0,0,0,0,0,0,0,0,0,0,0,0,0,0,0,0,0,0,0,0,
Peter Mozsi,mozsiman@hotmail.com,428402799,16 Kindlebark Drive,,,MEDOWIE,NSW,2318,AU,1,0,0,0,0,1,0,1,1,0,0,0,0,0,0,0,0,0,0,0,0,0,0,0,0,0,0,0,0,0,0,0,0,
Peter Kinsley,peterkinsley@hotmail.com,438616869,4 Sarabah Street,,,North Kellyville ,New South Wales,2155,AU,0,0,0,0,0,1,0,0,0,0,0,0,0,0,0,0,0,0,0,0,0,1,0,0,1,1,1,0,0,0,0,0,0,
Matthew Hargreaves,matthew16619@hotmail.com,404745234,9 Carmarthen Dr,,,Corio,Vic,3214,AU,1,0,0,0,0,1,0,1,1,0,0,0,0,0,0,0,0,0,0,0,0,0,0,0,0,0,0,0,0,0,0,0,0,
Haissam Assafiri,hassafiri@gmail.com,422567321,11 Clifford  loop,,Darch,Perth,Western Australia,6065,AU,1,0,0,0,0,1,0,1,1,1,0,0,0,0,0,0,0,0,0,0,0,0,0,0,0,0,0,0,0,0,0,0,0,
Selby Plank,selbyplank@gmail.com,436855661,38 Azolla Street Banksia Grove,,,Perth,Western Australia,6031,AU,0,0,0,0,0,0,0,0,0,0,0,0,0,1,0,0,0,0,0,0,0,0,0,0,0,0,0,0,0,0,0,0,0,
Darryl McCarthy,darryl.ipad@gmail.com,427044508,111 Albany Forest Drive,,,Brisbane,Queensland,4035,AU,1,0,0,0,0,1,0,1,1,0,0,0,0,0,0,0,0,0,0,0,0,0,0,0,0,0,0,0,0,0,0,0,0,
Dom,tiltingmills@gmail.com,62161004,40 Bundey Street,,,Higgins,ACT,2615,AU,1,0,0,0,0,1,0,1,1,0,0,0,0,0,0,0,0,0,0,0,0,0,0,0,0,0,0,0,0,0,0,0,0,
Nik Linnell,nlinnell@utas.edu.au,+61404835929,13 Sharon Court,Albany Creek,,Brisbane,Queensland,4035,AU,1,0,1,1,1,1,0,0,1,0,0,0,0,0,0,0,0,0,0,0,0,0,0,0,0,0,0,0,0,0,0,0,0,
James B Villinger,jvillinger@live.com.au,412633504,4 Lancers Drive,,,Harkness,VIC,3337,AU,1,0,0,0,0,1,0,1,1,0,0,0,0,0,0,0,0,0,0,0,0,0,0,0,0,0,0,0,0,0,0,0,0,
Shane Barford,sbarford@hotmail.com,427288156,20 peatey street,,,Mackay,Qld,4740,AU,1,0,1,1,1,1,1,0,0,1,1,1,0,0,0,0,0,0,0,0,0,0,0,0,0,0,0,0,0,0,0,0,0,
Gary Weatherhead,gary.weatherhead@icloud.com,+64 21 783 363,98 Rimu Road,,,Paraparaumu,Wellington,5032,NZ,1,0,0,0,1,1,1,0,1,1,0,0,0,0,0,0,0,0,0,0,0,0,0,0,0,0,0,0,0,0,0,0,0,
Fayez Moussa,link64@gmail.com,410423645,L6 1 Wentworth St,Empower IT,,Parramatta,NSW,2150,AU,1,0,1,0,1,1,0,1,1,1,0,1,0,0,0,0,0,0,0,0,0,0,0,0,0,0,0,0,0,0,0,0,0,
Darren Addison,darren@djra.com.au,421386008,Level 1 3908 Pacific Hwy,c/- de Jonge Read,,Loganholme Brisbane,Queensland,4129,AU,1,0,0,0,0,1,0,0,1,1,0,0,0,0,0,0,0,0,0,0,0,0,0,0,0,0,0,0,0,0,0,0,0,
Steven Millar,spamchicken73@hotmail.com,61400843970,9 .Heemskirk Street Warrane,,,Hobart,Tas,7018,AU,1,0,0,0,0,1,0,0,1,0,0,0,0,0,0,0,0,0,0,0,0,0,0,0,0,0,0,0,0,0,0,0,0,
William Harris,pjwd6799@msn.com,+61450785472,4A Valley View Court ,,,Niddrie,Victoria,3042,AU,1,0,0,0,0,1,0,0,1,0,0,0,0,0,0,0,0,0,0,0,0,0,0,0,0,0,0,0,0,0,0,0,0,
David Simmons ,davidsimmons0069@gmail.com,422041598,15 Osterley Ave Bridgewater SA,,,Adelaide ,South Australia ,5155,AU,1,0,0,0,0,1,1,0,1,0,0,0,0,0,0,0,0,0,0,0,0,0,0,0,0,0,0,0,0,0,0,0,0,
Jim Widdowson,thebiggestjimbo@gmail.com,431299930,14 Shelley Street,Spring Gully,,Bendigo,Victoria,3550,AU,1,0,0,0,0,1,0,0,10,0,0,0,0,0,0,0,0,0,0,0,0,0,0,0,0,0,0,0,0,0,0,0,0,
Joshua Benjamin Tinner,jbtinner95@icloud.com,406970936,5 Longfield St,,,Richmond,VIC,3121,AU,1,0,1,1,0,1,1,1,1,1,0,1,0,0,0,0,0,0,0,0,0,0,0,0,0,0,0,0,0,0,0,0,0,
Paul Leins,nmcc666@hotmail.com,402383919,Parcel Locker 10007 70848 15 Kingsland Parade,15 Kingsland Parade,,Casey,ACT,2913,AU,1,0,1,0,0,1,0,0,0,0,0,0,0,0,0,0,0,0,0,0,0,0,0,0,0,0,0,0,0,0,0,0,0,
nick painter,najpainter@hotmail.com,210425730,11 cridland street west,,,kaiapoi,canterbury,7630,NZ,0,0,0,0,0,0,0,0,0,0,0,0,0,1,0,0,0,0,0,0,0,0,0,0,0,0,0,0,0,0,0,0,0,
Ian Hancock,ianhancock@outlook.com,403983373,28/14 Kensington Place BIRKDALE,,,Brisbane,Queensland,4159,AU,1,0,0,0,0,1,0,0,0,0,0,0,0,0,0,0,0,0,0,0,0,0,0,0,0,0,0,0,0,0,0,0,0,
Andrew Edwards,andrew.edwards19@gmail.com,61450255265,104 Sarsfield Street,,,Blacktown,New South Wales,2148,AU,1,0,0,0,0,1,0,0,0,0,0,0,0,0,0,0,0,0,0,0,0,0,0,0,0,0,0,0,0,0,0,0,0,
Richard John boyes,r.j.boyes@gmail.com,272099969,Fisher and Paykel Healthcare,15 Maurice Paykel Place ,,Auckland,East Tamaki,2013,NZ,1,0,1,1,1,1,1,0,0,1,0,1,0,0,0,0,0,0,0,0,0,0,0,0,0,0,0,0,0,0,0,0,0,
Peter Blakeman,ra66it@gmail.com,439999080,99 Anderson Street,,,Newport,Victoria,3015,AU,1,0,1,0,1,1,0,0,0,0,0,0,0,0,0,0,0,0,0,0,0,0,0,0,0,0,0,0,0,0,0,0,0,
Marco Bergman,m_bergman@xtra.co.nz,+6445778970,Uniplas NZ Ltd,201 Eastern Hutt Road ,Wingate,Lower Hutt,Wellington,5019,NZ,2,0,2,1,1,2,1,1,1,1,1,1,0,0,0,0,0,0,0,0,0,0,0,0,0,0,0,0,0,0,0,0,0,
Michelle Costello,kogepan_81@hotmail.com,414278070,7 Leis Way,,,Regents Park,QLD,4118,AU,1,0,0,0,0,1,0,0,0,0,0,0,0,0,0,0,0,0,0,0,0,0,0,0,0,0,0,0,0,0,0,0,0,
Caitlin F Stephenson,caitlin.stephenson@hotmail.com,425809643,1/4 Gedye street,,,Doncaster East,Vic,3109,AU,1,0,0,0,0,1,0,0,0,0,0,0,0,0,0,0,0,0,0,0,0,0,0,0,0,0,0,0,0,0,0,0,0,
Scott Horan,aussieobelix@grapevine.com.au,401417710,77 Scantlebury Cres,,,Theodore,ACT,2905,AU,1,0,1,0,1,1,1,1,0,1,0,0,0,0,0,0,0,0,0,0,0,0,0,0,0,0,0,0,0,0,0,0,0,
Nicholas Zuraw,nzuraw@lunicus.org,435600175,646 California Road,,,MCLAREN VALE,SA,5171,AU,1,0,0,0,1,0,0,1,1,0,0,0,0,0,0,0,0,0,0,0,0,0,0,0,0,0,0,0,0,0,0,0,0,
David Barlow,spaceindaver@gmail.com,490795757,10 Kestrel Drive,,,Shepparton,VIC,3630,AU,1,0,0,0,1,0,0,1,1,0,0,0,0,0,0,0,0,0,0,0,0,0,0,0,0,0,0,0,0,0,0,0,0,
Sean Charles,s.e.a.n.87@hotmail.com,413347181,7 Yarrow Court,,,Berwick,Victoria,3806,AU,0,0,0,0,0,0,0,0,0,0,0,0,1,0,0,0,0,0,0,0,0,0,0,0,0,0,0,0,0,0,0,0,0,
Jeffrey Kong,jeffk175080@hotmail.com,451119713,P.O. Box 1092 Broadway,,,Sydney,NSW,2007,AU,1,0,0,0,1,0,0,0,1,0,0,0,0,0,0,0,0,0,0,0,0,0,0,0,0,0,0,0,0,0,0,0,0,
Michael Mooney,mooneythechimp@hotmail.com,402256488,22 Bowden st ryde,,,Sydney,Nsw,2112,AU,1,0,0,0,1,0,0,1,1,0,0,0,0,0,0,0,0,0,0,0,0,0,0,0,0,0,0,0,0,0,0,0,0,
Andrew Wright,adwright72@gmail.com,427155176,Parcel Locker 10038 52219,60 Spit Road,,Mosman,NSW,2088,AU,1,0,0,0,1,0,0,0,0,0,0,0,0,0,0,0,0,0,0,0,0,0,0,0,0,0,0,0,0,0,0,0,0,
Katy Gavin,katy.owen87@gmail.com,401462919,11 Ida West street ,,,Bonner,ACT,2914,AU,1,0,0,0,1,0,0,0,0,0,0,0,0,0,0,0,0,0,0,0,0,0,0,0,0,0,0,0,0,0,0,0,0,
Vito Giorgio,vito_1993@hotmail.com,431266290,12 Ryeland Court,,,North Geelong,VIC,3215,AU,1,0,0,0,1,0,0,0,0,1,0,0,0,0,0,0,0,0,0,0,0,0,0,0,0,0,0,0,0,0,0,0,0,
Adrian Hunt,amhunt1024@gmail.com,478524392,Unit 1 31-33 Waterloo Street,,,Joondanna,WA,6060,AU,1,0,0,0,1,0,0,0,0,1,0,1,0,0,0,0,0,0,0,0,0,0,0,0,0,0,0,0,0,0,0,0,0,
Les Nagy,les.nagy@outlook.com,+614 04098048,48 King St,Dundas Valley,,Sydney,NSW,2117,AU,0,0,0,0,0,0,0,0,0,0,0,0,0,1,0,0,0,0,0,0,0,0,0,0,0,0,0,0,0,0,0,0,0,
Peter Appleton,aps_uber_alles@hotmail.com,+61409164498,The National Library of Australia,Parkes Place,,Canberra,Other (Non U.S.),2600,AU,1,0,1,1,0,0,0,1,1,0,0,0,0,0,0,0,0,0,0,0,0,0,0,0,0,0,0,0,0,0,0,0,0,
David McDermott,holidaydavey@gmail.com,0417 131 134,PO Box 1254,,,WINDSOR,VICTORIA,3181,AU,0,0,0,0,0,0,0,0,0,0,0,0,0,1,0,0,0,0,0,0,0,0,0,0,0,0,0,0,0,0,0,0,0,
Tim Williams,timothydjwilliams@gmail.com,432340323,133,Inverness Street,,Upper Kedron,Qld,4055,AU,0,0,0,0,0,0,0,0,0,0,0,0,1,0,0,0,0,0,0,0,0,0,0,0,0,0,0,0,0,0,0,0,0,
Adam Dean,rubes_4@hotmail.com,425859342,9/10  Houston Court,,,Box Hill South,Vic,3128,AU,0,0,0,0,0,0,0,0,0,0,0,0,0,1,0,0,0,0,0,0,0,0,0,0,0,0,0,0,0,0,0,0,0,
Brian Reynolds,brey24@optusnet.com.au,61419926964,21 Canterbury Tce,,,East Victoria Park,WA,6101,AU,0,0,0,0,0,0,0,0,0,0,0,0,1,0,0,0,0,0,0,0,0,0,0,0,0,0,0,0,0,0,0,0,0,
Fu Hua Cheng,wabacom2@gmail.com,61422168346,PO Box 296,,,Maylands,Western Australia,6931,AU,1,0,1,1,1,1,1,1,1,1,0,0,0,0,0,0,0,0,0,0,0,0,0,0,0,0,0,0,0,0,0,0,0,
Michael Bottroff,xviper@internode.on.net,408796268,PO Box 61,,,BELAIR,South Australia,5052,AU,1,0,1,1,1,1,0,0,1,1,0,0,0,0,0,0,0,0,0,0,0,0,0,0,0,0,0,0,0,0,0,0,0,
Mark atkins,markatkins@internode.on.net,418372502,27 White Hills Road,,,penguin,Tasmania,7316,AU,0,0,0,0,0,0,0,0,0,0,0,0,1,0,0,0,0,0,0,0,0,0,0,0,0,0,0,0,0,0,0,0,0,
Glen Ford Ph0409599691,fordbear@gmail.com,61 409599691,19-29 Macedon Street,1010820954 PARCEL LOCKER ,,SUNBURY ,Victoria,3429,AU,0,0,0,0,0,0,0,0,0,0,0,0,0,0,1,0,0,0,0,0,0,0,0,0,0,0,0,0,0,0,0,0,0,
Matthew Timu,matthew.timu@fleet.defence.gov.au,411507235,13 Louise St Jannali,,,Sydney ,NSW,2226,AU,0,0,0,0,0,0,0,0,0,0,0,0,1,0,0,0,0,0,0,0,0,0,0,0,0,0,0,0,0,0,0,0,0,
Ashley Cook,ozboater@outlook.com,61266534581,21 Forbes Close,,,Bonville,NSW,2450,AU,1,0,0,1,1,0,0,1,1,1,0,0,0,0,0,0,0,0,0,0,0,0,0,0,0,0,0,0,0,0,0,0,0,
Kody Baker,kb849@uowmail.edu.au,61423054899,58 Gahans Avenue,,,Woonona,NSW,2517,AU,0,0,0,0,0,0,0,0,0,0,0,0,1,0,0,0,0,0,0,0,0,0,0,0,0,0,0,0,0,0,0,0,0,
Tyler Williams,tjwilliams66688@gmail.com,6439426987,72A HARROW STREET,PHILLIPSTOWN,,Christchurch,Canterbury,8011,NZ,0,0,0,0,0,0,0,0,0,0,0,0,1,0,0,0,0,0,0,0,0,0,0,0,0,0,0,0,0,0,0,0,0,
Mathew Dewar,mdewar@westnet.com.au,400999098,Parcel Locker 10137 82003 40 Crompton Road Rockingham 6168,,,Rockingham,Western Australia,6168,AU,0,0,0,0,0,0,0,0,0,0,0,0,0,0,1,0,0,0,0,0,0,0,0,0,0,0,0,0,0,0,0,0,0,
Jason Glanville,jwg.core@gmail.com,407235659,PO Box 639,,,Wagga Wagga,NSW,2650,AU,1,0,0,0,0,0,0,1,1,0,0,0,0,0,0,0,0,0,0,0,0,0,0,0,0,0,0,0,0,0,0,0,0,
Maxwell Aldam,ebaybox@bigpond.com,+61404739517,989 Grand Junction Road,,,Modbury,SA,5092,AU,1,0,1,1,1,1,0,1,1,1,0,1,0,0,0,0,0,0,0,0,0,0,0,0,0,0,0,0,0,0,0,0,0,
Stuart Fern,elheru@hotmail.com,415707273,4 Mockingbird Drive,,,Gold Coast,Queensland,4209,AU,0,0,0,0,0,0,0,0,0,0,0,0,1,0,0,0,0,0,0,0,0,0,0,0,0,0,0,0,0,0,0,0,0,
CRAIG ONEIL,cvoneil@lycos.com,0425 709320,24 WILLIAM ROAD,,,THE PATCH,VIC,3792,AU,2,0,1,1,1,2,1,1,1,2,1,2,0,0,0,0,0,0,0,0,0,0,0,0,0,0,0,0,0,0,0,0,0,
Buster Hills-Hughes,buzzdup11@yahoo.com,422357603,673 King Georges Rd,,,Penshurst,NSW,2222,AU,1,0,1,1,1,1,0,1,1,1,0,0,0,0,0,0,0,0,0,0,0,0,0,0,0,0,0,0,0,0,0,0,0,
Mark Harding,hardmarking@gmail.com,61403850744,26 Logan St,,,Loftus,NSW,2232,AU,0,0,0,0,0,0,0,0,0,0,0,0,1,0,0,0,0,0,0,0,0,0,0,0,0,0,0,0,0,0,0,0,0,
Ben Martin,benjamin.martin@defence.gov.au,+61448225677,64 Acacia avenue,,,Waratah west,New South Wales,2298,AU,0,0,0,0,0,0,0,0,0,0,0,0,1,0,0,0,0,0,0,0,0,0,0,0,0,0,0,0,0,0,0,0,0,
Andre Tedjasukmana,andre.tedja@gmail.com,431291360,104 Abbotsford Road,,,Homebush,New South Wales,2140,AU,0,0,0,0,0,0,0,0,0,0,0,0,1,0,0,0,0,0,0,0,0,0,0,0,0,0,0,0,0,0,0,0,0,
Gabor Pali,amoeba101@gmail.com,1161402614900,80A Bertha St,,,Goodna,Queensland,4300,AU,0,0,0,0,0,0,0,0,0,0,0,0,1,0,0,0,0,0,0,0,0,0,0,0,0,0,0,0,0,0,0,0,0,
Jamie Chow,jamie.chow.nz@gmail.com,2102426388,19 Lavas Place,,,Auckland,,1060,NZ,0,0,0,0,0,0,0,0,0,0,0,0,1,0,0,0,0,0,0,0,0,0,0,0,0,0,0,0,0,0,0,0,0,
Marty Howe,howe.clan@xtra.co.nz,277731393,1 Fiordland place,Aotea,,Porirua,WELLINGTON,5024,NZ,0,0,0,0,0,0,0,0,0,0,0,0,1,0,0,0,0,0,0,0,0,0,0,0,0,0,0,0,0,0,0,0,0,
Evan Becker,beckerevan@gmail.com,403594295,8 Neptune Terrace,,,Rosewater,SA,5013,AU,0,0,0,0,0,0,0,0,0,0,0,0,1,0,0,0,0,0,0,0,0,0,0,0,0,0,0,0,0,0,0,0,0,
Darren Goodair,darren.goodair@gmail.com,433302357,2 Alva Terrace,,,Gordon Park,Queensland,4031,AU,0,0,0,0,0,0,0,0,0,0,0,0,1,0,0,0,0,0,0,0,0,0,0,0,0,0,0,0,0,0,0,0,0,
Alistair Campbell,alistaircampbell@internode.on.net,413184151,13 Wychwood Grove,,,Upper Sturt,South Australia,5156,AU,2,0,1,2,1,1,2,1,1,2,1,1,0,0,0,0,0,0,0,0,0,0,0,0,0,0,0,0,0,0,0,0,0,
Ross O'Dell,rossodell@bigpond.com,429150171,31 Glenn St,,,Emerald,Queensland,4720,AU,1,0,1,1,1,1,0,1,1,1,0,0,0,0,0,0,0,0,0,0,0,0,0,0,0,0,0,0,0,0,0,0,0,
Wayne Hoare,wayne.hoare@gmail.com,+61400725134,17 Lyons Rise,,,South Morang,VIC,3752,AU,2,0,1,2,1,2,1,1,1,1,1,2,0,0,0,0,0,0,0,0,0,0,0,0,0,0,0,0,0,0,0,0,0,
Michael Culling,m_culling33@hotmail.com,434995223,40 Seaville Avenue,,,Scarborough,QLD,4020,AU,1,0,0,0,0,1,0,1,1,0,0,0,0,0,0,0,0,0,0,0,0,0,0,0,0,0,0,0,0,0,0,0,0,
James Urquhart,james.urquhart.aus@gmail.com,421973950,51 Grange Place,,,Moggill,QLD,4070,AU,1,0,1,0,1,1,0,1,1,1,0,0,0,0,0,0,0,0,0,0,0,0,0,0,0,0,0,0,0,0,0,0,0,
Trent Yarwood,trentyarwood@gmail.com,+61403819234,Parcel Locker 10014 69447,38 Sheridan St,,Cairns,QLD,4870,AU,1,0,1,1,1,1,1,1,1,1,1,0,0,0,0,0,0,0,0,0,0,0,0,0,0,0,0,0,0,0,0,0,0,
Paul Elliott,paulselliott@gmail.com,+642108502257,5 Ranger St,Mairehau,,Christchurch,Canterbury,8052,NZ,0,0,0,0,0,0,0,0,0,0,0,0,1,0,0,0,0,0,0,0,0,0,0,0,0,0,0,0,0,0,0,0,0,
Michael Walters,stuthirteen@yahoo.co.uk,+61424261454,19A Civic Place,,,Stirling,WA,6021,AU,1,0,1,1,1,1,0,1,1,1,1,0,0,0,0,0,0,0,0,0,0,0,0,0,0,0,0,0,0,0,0,0,0,
Josh Zammit,joshrzammit@outlook.com,433782483,8A Marwong Street,,,Corlette,NSW,2315,AU,1,0,1,1,1,1,0,1,1,1,0,0,0,0,0,0,0,0,0,0,0,0,0,0,0,0,0,0,0,0,0,0,0,
Anthony Spinosa,spinffx@gmail.com,425755732,315 Tindals Road,,,Warrandyte,VIC,3113,AU,1,0,1,1,1,1,0,1,1,0,0,0,0,0,0,0,0,0,0,0,0,0,0,0,0,0,0,0,0,0,0,0,0,
Dare Remai,dare.remai@gmail.com,434722169,25 Kent Rd,,,Box Hill,Victoria,3128,AU,0,0,0,0,0,0,0,0,0,0,0,0,0,1,0,0,0,0,0,0,0,0,0,0,0,0,0,0,0,0,0,0,0,
Andrew   Agutters,theagutters@gmail.com,0064 274975545,P O Box 38-236 Howick,,,Auckland,,2145,NZ,1,0,0,1,0,0,0,1,1,1,0,0,0,0,0,0,0,0,0,0,0,0,0,0,0,0,0,0,0,0,0,0,0,
Mark Dennett,markdennettnob@hotmail.com,447187632,79 Taylor St,,South Australia,Kadina,South Australia,5554,AU,0,0,0,0,1,1,1,0,0,0,0,1,0,0,0,0,0,0,0,0,0,1,1,1,1,1,1,0,0,0,0,0,0,
Nick Dodd,nadodd83@gmail.com,417846898,24 Tilanbi Street,,,Howrah,Tasmania,7018,AU,1,0,0,0,0,0,0,1,1,0,0,0,0,0,0,0,0,0,0,0,0,0,0,0,0,0,0,0,0,0,0,0,0,
Mark Carter,mark@guf.com.au,+61420308483,9 Dana St,,,Ballarat Central,Victoria,3350,AU,1,0,0,0,0,0,0,1,1,0,0,0,0,0,0,0,0,0,0,0,0,0,0,0,0,0,0,0,0,0,0,0,0,
Ben,ben.newbon@yahoo.co.uk,450876227,Good Games Rockingham,4a/3 Goddard Street,,Rockingham,WA,6168,AU,1,0,1,1,1,1,0,1,1,0,0,0,0,0,0,0,0,0,0,0,0,0,0,0,0,0,0,0,0,0,0,0,0,
Peter Trajdos,trajik70@bigpond.com,882635055,9 Arethusa Street,,,modbury heights,South Australia,5092,AU,1,0,0,0,1,0,0,1,1,0,0,0,0,0,0,0,0,0,0,0,0,0,0,0,0,0,0,0,0,0,0,0,0,
Callum Bucknell,callum.j.w.bucknell@gmail.com,467470716,38 Scott Street,,,Essendon,Victoria,3040,AU,1,0,1,1,1,1,1,1,1,1,0,0,0,0,0,0,0,0,0,0,0,0,0,0,0,0,0,0,0,0,0,0,0,
Aidan Whittle,aidan.whittle@hotmail.com,427284614,PO Box 3366 Belconnen DC,,,Canberra,ACT,2617,AU,1,0,0,0,0,0,0,1,1,0,0,0,0,0,0,0,0,0,0,0,0,0,0,0,0,0,0,0,0,0,0,0,0,
Sean Murphy,sd_murphy@outlook.com,61497798419,7 Hannover Road,,,Badger Creek,Victoria,3777,AU,1,0,1,1,1,1,0,1,1,1,0,0,0,0,0,0,0,0,0,0,0,0,0,0,0,0,0,0,0,0,0,0,0,
Steven Yu,akayueh@gmail.com,401043641,1/91 Yorktown Pde,,,Maroubra,NSW,2035,AU,1,0,1,1,1,1,0,1,1,0,0,0,0,0,0,0,0,0,0,0,0,0,0,0,0,0,0,0,0,0,0,0,0,
Greg Mccaskill,gdmbond@iinet.net.au,413567299,12 Yass Circuit,,,Kelso,Queensland,4815,AU,0,0,0,0,0,0,0,0,0,0,0,0,0,1,0,0,0,0,0,0,0,0,0,0,0,0,0,0,0,0,0,0,0,
Thomas Benson ,devine_shadow@hotmail.com,417779979,3 Bartlett Street,,,Sunshine Coast ,Queensland,4560,AU,0,0,0,0,0,0,0,0,0,0,0,0,1,0,0,0,0,0,0,0,0,0,0,0,0,0,0,0,0,0,0,0,0,
Adrian Smith,smitzel75@gmail.com,401372487,18 Quality Court,,,Wynn Vale,South Australia,5127,AU,0,0,0,0,0,0,0,0,0,0,0,0,0,0,1,0,0,0,0,0,0,0,0,0,0,0,0,0,0,0,0,0,0,
Dave Black,furlon2600@gmail.com,412557036,214 / 5-7 Dunstan Grove,,,Lindfield,New South Wales,2070,AU,1,0,1,0,1,1,1,1,1,0,0,0,0,0,0,0,0,0,0,0,0,0,0,0,0,0,0,0,0,0,0,0,0,
Daniel Watson,djkwatson@gmail.com,431748290,50 Craig St,,,Spotswood,VIC,3015,AU,1,0,0,0,0,0,0,1,1,0,0,0,0,0,0,0,0,0,0,0,0,0,0,0,0,0,0,0,0,0,0,0,0,
David du Plooy,ogrebunny@gmail.com,211078004,8 Russell Road,,,Burnham,Selwyn,7600,NZ,0,0,0,0,0,0,0,0,0,0,0,0,1,0,0,0,0,0,0,0,0,0,0,0,0,0,0,0,0,0,0,0,0,
Chris Anderson,543ando@gmail.com,417757713,11 Malton St,The Gap ,,Brisbane,Queensland,4061,AU,0,0,0,0,0,0,0,0,0,0,0,0,0,1,0,0,0,0,0,0,0,0,0,0,0,0,0,0,0,0,0,0,0,
Andrew Klava,andrew.klava@xtra.co.nz,272490096,258 Jackson Road,RD6,,Rotorua,Bay of Plenty,3096,NZ,1,0,1,1,1,1,0,1,1,1,0,0,0,0,0,0,0,0,0,0,0,0,0,0,0,0,0,0,0,0,0,0,0,
Samuel McCabe,sammcc1234@gmail.com,221834335,2 Joffre Street,Frankton,Hamilton,Hamilton,Waikato,3204,NZ,1,0,1,0,0,0,0,0,1,0,0,0,0,0,0,0,0,0,0,0,0,0,0,0,0,0,0,0,0,0,0,0,0,
Morgan Kennedy,morgan.j.kennedy@gmail.com,430544600,1/22 Saxon Street,,,Brunswick,VIC,3056,AU,1,0,1,1,1,1,0,1,1,1,1,0,0,0,0,0,0,0,0,0,0,0,0,0,0,0,0,0,0,0,0,0,0,
Rory Mclintock,papasmurf_93@live.com.au,451026146,8 Mara Crescent,,,Mooney Mooney,NSW,2083,AU,0,0,0,0,0,0,0,0,0,0,0,0,1,0,0,0,0,0,0,0,0,0,0,0,0,0,0,0,0,0,0,0,0,
Matthew Berends,mattberends@msn.com,413020693,19 Chenin Mews,,,Waurn Ponds,vic,3216,AU,0,0,0,0,0,0,0,0,0,0,0,0,1,0,0,0,0,0,0,0,0,0,0,0,0,0,0,0,0,0,0,0,0,
Ryan Wong,ryan0wong@yahoo.com.au,+61402937150,369 Boronia Road,,,Boronia,Victoria,3155,AU,0,0,0,0,0,0,0,0,0,0,0,0,0,1,0,0,0,0,0,0,0,0,0,0,0,0,0,0,0,0,0,0,0,
Mark Noble,marknoble@windowslive.com,64221751787,308 Westminster Street,Mairehau,,Christchurch,Canterbury,8013,NZ,1,0,0,0,0,0,0,0,1,0,0,0,0,0,0,0,0,0,0,0,0,0,0,0,0,0,0,0,0,0,0,0,0,
Corey Mcclelland,cjmcclelland@gmail.com,404390245,30 Rutland St,,,Newtown,Victoria,3220,AU,0,0,0,0,0,0,0,0,0,0,0,0,0,1,0,0,0,0,0,0,0,0,0,0,0,0,0,0,0,0,0,0,0,
Andrew,i.am.andrew.green@gmail.com,273626295,5 Lady Isaac Drive,,,Rolleston,Canterbury,7615,NZ,1,0,1,1,1,0,0,1,1,1,1,0,0,0,0,0,0,0,0,0,0,0,0,0,0,0,0,0,0,0,0,0,0,
Barry Earley,barryearley@y7mail.com,400989837,12 Milos Mews,,,Secret Harbour ,Western Australia ,6173,AU,1,0,1,1,1,1,0,0,1,0,0,0,0,0,0,0,0,0,0,0,0,0,0,0,0,0,0,0,0,0,0,0,0,
Ian Cunningham,janec.ianc@gmail.com,+61 434 705 364,80 Longview Road,Balwyn North,,Balwyn North,Victoria,3104,AU,2,0,1,1,1,1,1,1,1,1,1,0,0,0,0,0,0,0,0,0,0,0,0,0,0,0,0,0,0,0,0,0,0,
Brendon Shack,shack-attack@hotmail.com,412723099,340 Sunday Creek Rd,,,Sunday Creek ,Victoria,3658,AU,1,0,1,1,1,1,1,0,1,1,0,1,0,0,0,0,0,0,0,0,0,0,0,0,0,0,0,0,0,0,0,0,0,
Daniel Brown,joeybrown2006@hotmail.com,+277773379,166 Fraser Avenue,Johnsonville,,Wellington,,6037,NZ,1,0,1,1,1,2,2,1,1,1,1,1,0,0,0,0,0,0,0,0,0,0,0,0,0,0,0,0,0,0,0,0,0,
Neil Thompson,neilthompson19@gmail.com,412922027,30 Prescot Parade,,,Milperra,NSW,2214,AU,1,0,0,0,1,0,0,1,1,0,0,0,0,0,0,0,0,0,0,0,0,0,0,0,0,0,0,0,0,0,0,0,0,
Colin Nicholls,colnics62@gmail.com,449959118,48 Leemak Crescent ,,,Berwick ,Victoria ,3806,AU,1,0,0,0,0,1,0,0,1,0,0,0,0,0,0,0,0,0,0,0,0,0,0,0,0,0,0,0,0,0,0,0,0,
Vladimir Pejovic,elvlado@gmail.com,403490881,Parcel Locker 10153 63937,Shop 1204A,1 North Lakes Drive,North Lakes,Queensland,4509,AU,1,0,1,1,2,1,1,1,1,1,1,1,0,0,0,0,0,0,0,0,0,0,0,0,0,0,0,0,0,0,0,0,0,
Voon Shong Min,xav_275@hotmail.com,+642102707655,7 Statham Street,Brockville,,Dunedin,Otago,9011,NZ,1,0,1,1,1,1,0,0,1,0,0,0,0,0,0,0,0,0,0,0,0,0,0,0,0,0,0,0,0,0,0,0,0,
Alexander Robertson,vivalacarlos@hotmail.com,400801543,10 dryandra crescent,,,Darlington,Western Australia,6070,AU,1,0,0,0,0,0,0,0,1,0,0,0,0,0,0,0,0,0,0,0,0,0,0,0,0,0,0,0,0,0,0,0,0,
Gregory Chen,greg_chen@rocketmail.com,610410303302,Specialist Medical Imaging. 29 Grose St,,,Parramatta ,NSW,2151,AU,1,0,1,1,1,1,1,1,2,1,0,0,0,0,0,0,0,0,0,0,0,0,0,0,0,0,0,0,0,0,0,0,0,
James Rayner,jamesrayner@gmail.com,421050981,38 Edward Street,,,Marrickville,New South Wales,2204,AU,1,0,0,0,1,1,0,0,1,0,0,0,0,0,0,0,0,0,0,0,0,0,0,0,0,0,0,0,0,0,0,0,0,
steve park-smith,parksmiths@hotmail.com,433393688,20 Ebeling Court Nicholls,,,Canberra,ACT,2913,AU,1,0,0,0,0,0,0,0,1,0,0,0,0,0,0,0,0,0,0,0,0,0,0,0,0,0,0,0,0,0,0,0,0,
benson zhong,iseeyouinthenight@gmail.com,+61488328198,60 Fairfax Street ,The Ponds,,Sydney,NSW,2769,AU,1,0,0,1,0,1,0,0,1,0,0,0,0,0,0,0,0,0,0,0,0,0,0,0,0,0,0,0,0,0,0,0,0,
Scott Arnold,extremepaintballoz@hotmail.com,+61407770486,PO Box 308,,,Wilston,QLD,4051,AU,0,0,0,0,0,0,0,0,0,0,0,0,1,0,0,0,0,0,0,0,0,0,0,0,0,0,0,0,0,0,0,0,0,
Louise Neill,weeze_2389@hotmail.com,439581627,55 Marlinspike Boulevard,,,Perth,Western Australia,6036,AU,1,0,1,1,1,1,1,1,1,1,0,0,0,0,0,0,0,0,0,0,0,0,0,0,0,0,0,0,0,0,0,0,0,
Patrick Hodge,oitisme@gmail.com,434618037,17 Frederick Street Moggill,,,Brisbane ,Queensland ,4070,AU,0,0,0,0,0,0,0,0,1,0,0,0,0,0,0,0,0,0,0,0,0,0,0,0,0,0,0,0,0,0,0,0,0,
Brodie Hartigan,longbowapache64@hotmail.com,+61447600263,16 Wilkie Road,,,Junortoun,VIC,3551,AU,0,0,0,0,0,0,0,0,0,0,0,0,1,0,0,0,0,0,0,0,0,0,0,0,0,0,0,0,0,0,0,0,0,
Adam Cully,acully_42@hotmail.com,+61421525071,19 Nolan Drive,,,Warragul,Victoria,3820,AU,1,0,1,1,1,1,0,0,0,0,0,0,0,0,0,0,0,0,0,0,0,0,0,0,0,0,0,0,0,0,0,0,0,
Toby Williamson,toby@cye.com.au,402053417,354 Stuart Highway,Parcel Locker 10202 36739,,WINNELLIE,Northern Territory,820,AU,0,0,0,0,0,0,0,0,0,0,0,0,1,0,0,0,0,0,0,0,0,0,0,0,0,0,0,0,0,0,0,0,0,
Hei Yeung Calvin Lai,hei.lai@uqconnect.edu.au,+61413415567,53 helsinki st,,,Spring Mountain,Queensland,4300,AU,1,0,1,1,1,1,0,0,0,0,0,0,0,0,0,0,0,0,0,0,0,0,0,0,0,0,0,0,0,0,0,0,0,
Liam O'Hanlon,liamjosephohanlon@gmail.com,401816174,1/13 Cartwright Street,,,Oak Park,VIC,3046,AU,0,0,0,0,0,0,0,0,0,0,0,0,1,0,0,0,0,0,0,0,0,0,0,0,0,0,0,0,0,0,0,0,0,
Matthew Robert Sime,simematthew12@gmail.com,21488635,41 Green Street,,Mosgiel,Dunedin,Otago,9024,NZ,1,0,0,0,0,0,0,0,0,0,0,0,0,0,0,0,0,0,0,0,0,0,0,0,0,0,0,0,0,0,0,0,0,
Philly McKinnon,phillymckinnon89@gmail.com,466211494,4/2 Tintern Rd,,,Ashfield,NSW,2131,AU,1,0,0,0,0,0,0,0,0,0,0,0,0,0,0,0,0,0,0,0,0,0,0,0,0,0,0,0,0,0,0,0,0,
Gregory Peatey,gregory.peatey@gmail.com,423572676,23 Willena St,,Boondall,Boondall,Queensland,4034,AU,1,0,0,0,0,0,0,0,0,0,0,0,0,0,0,0,0,0,0,0,0,0,0,0,0,0,0,0,0,0,0,0,0,
NEIL WINTERS,neilwinters1@icloud.com,429040074,13 Ronald St,Blacktown,,Sydney,NSW,2148,AU,1,0,1,0,1,1,1,0,0,0,0,0,0,0,0,0,0,0,0,0,0,0,0,0,0,0,0,0,0,0,0,0,0,
Matthew Langdon,lanman64@iinet.net.au,61430298829,78 Bottlebrush Drive,,,Kiara,WA,6054,AU,1,0,1,0,1,1,1,0,0,0,0,0,0,0,0,0,0,0,0,0,0,0,0,0,0,0,0,0,0,0,0,0,0,
Eldon Carpenter,eldoncarpenter32@gmail.com,423337697,13B Trafalgar St,,,Annandale,NSW,2038,AU,1,0,1,1,1,1,1,0,0,1,0,1,0,0,0,0,0,0,0,0,0,0,0,0,0,0,0,0,0,0,0,0,0,
Joshua Tham,joshuathamag@gmail.com,410111774,10 St Albans Promenade,,,Perth,WA,6155,AU,1,0,0,0,0,0,0,0,0,0,0,0,0,0,0,0,0,0,0,0,0,0,0,0,0,0,0,0,0,0,0,0,0,
Shahn Rajah,shahnrajah@iinet.net.au,449758050,PO BOX 2326 Kardinya,,,Perth,WA,6163,AU,0,0,0,0,0,0,0,0,0,0,0,0,1,0,0,0,0,0,0,0,0,0,0,0,0,0,0,0,0,0,0,0,0,
Julian Harris,julianharris88@gmail.com,422758894,1 Coconut Street,,,Holloways Beach,QLD,4878,AU,1,0,1,0,1,1,0,0,0,0,0,0,0,0,0,0,0,0,0,0,0,0,0,0,0,0,0,0,0,0,0,0,0,
James Pinker,mezwick@gmail.com,+64 21 1650453,PO Box 20306,Glen Eden,,Auckland,Auckland,602,NZ,1,0,1,1,1,1,0,1,1,1,0,0,0,0,0,0,0,0,0,0,0,0,0,0,0,0,0,0,0,0,0,0,0,
C Cameron,numberonespud@hotmail.com,403919982,3 SUNRISE CRESCENT,,,Goonellabah,NSW,2480,AU,0,0,0,0,0,0,0,0,0,0,0,0,0,1,0,0,0,0,0,0,0,0,0,0,0,0,0,0,0,0,0,0,0,
Andy Caldin,doctorcaldin@gmail.com,472839740,97R,Old Mendooran Road,Dubbo,Dubbo,NSW,2830,AU,0,0,0,0,0,0,0,0,0,0,0,0,1,0,0,0,0,0,0,0,0,0,0,0,0,0,0,0,0,0,0,0,0,
David Harris,okedoke@gmail.com,61448474494,17 HARDWICK STREET,,,WYNNUM WEST,QLD,4178,AU,1,0,1,1,1,1,1,1,1,0,1,0,0,0,0,0,0,0,0,0,0,0,0,0,0,0,0,0,0,0,0,0,0,
Darryl Geddes,reddaza@hotmail.com,021 0446627,101 Papakai Road,RD 5,,Taihape,,4795,NZ,1,0,1,1,1,1,1,0,1,1,1,1,0,0,0,0,0,0,0,0,0,0,0,0,0,0,0,0,0,0,0,0,0,
Robert Shaw,bobshaw967@hotmail.com,466896272,Unit 1 25 Mowatt St,,,Queanbeyan,NSW,2620,AU,0,0,0,0,0,0,0,0,0,0,0,0,1,0,0,0,0,0,0,0,0,0,0,0,0,0,0,0,0,0,0,0,0,
Owen Glover,oglover@bigpond.com,61352831337,65 Flinders Street,,,Little River,Victoria,3211,AU,1,0,0,0,0,0,0,0,0,0,0,0,0,0,0,0,0,0,0,0,0,0,0,0,0,0,0,0,0,0,0,0,0,
Clodoveo Lipana,clipana@optusnet.com.au,449933733,Parcel Locker 10077 23463,Shop 31 80 Harvester Road,,Sunshine,Victoria,3020,AU,0,0,0,0,0,0,0,0,0,0,0,0,1,0,0,0,0,0,0,0,0,0,0,0,0,0,0,0,0,0,0,0,0,
Christopher Scholten,cischolten@icloud.com,+61433621571,6 Cranberry Gardens ,,,Stirling,WA,6021,AU,2,1,1,1,1,2,2,1,1,2,1,1,0,0,0,0,0,0,0,0,0,0,0,0,0,0,0,0,0,0,0,0,0,
Rob de Groot,turnthelampdownlow@gmail.com,61422337346,228 Auburn Road,c/o Fine Music,,Hawthorn,Victoria,3122,AU,0,0,0,0,0,0,0,0,0,0,0,0,1,0,0,0,0,0,0,0,0,0,0,0,0,0,0,0,0,0,0,0,0,
Darren Hartley,darren.hartley86@gmail.com,61406564793,28/164 Lakeside Dr,,,Joondalup,WA,6027,AU,0,0,0,0,0,0,0,0,0,0,0,0,1,0,0,0,0,0,0,0,0,0,0,0,0,0,0,0,0,0,0,0,0,
William Dejong,williamdejongwillba@outlook.com,499199270,69 Brindabella drive Wagga Wagga NSW,Wagga Wagga NSW,Wagga Wagga NSW,wagga,NSW,2650,AU,0,0,0,0,0,0,0,0,0,0,0,0,1,0,0,0,0,0,0,0,0,0,0,0,0,0,0,0,0,0,0,0,0,
Lauchlan Daalmeyer,lochiexr8@hotmail.com,411621704,73 Martin Street,,,Belgrave,Victoria,3160,AU,1,0,1,1,1,1,1,0,1,1,0,1,0,0,0,0,0,0,0,0,0,0,0,0,0,0,0,0,0,0,0,0,0,
Vladimir Fetisov,fetisov98mail@gmail.com,481184694,5/95 Stirling Highway,,,Nedlands,Western Australia,6009,AU,1,0,0,0,0,0,0,0,0,0,0,0,0,0,0,0,0,0,0,0,0,0,0,0,0,0,0,0,0,0,0,0,0,
Mitchell Reeves,mitchellreeves98@gmail.com,402939200,16 Killingholme Dr,,,Mornington ,Victoria ,3931,AU,0,0,0,0,1,1,1,0,0,0,1,1,0,0,0,0,0,0,0,0,0,1,1,1,0,0,0,0,0,0,1,1,1,
Reese Witt,reesewitt@bigpond.com,439074319,94 Redgum Dr,,,Regents Park,Queensland,4118,AU,0,0,0,0,0,0,0,0,0,0,0,0,0,0,1,0,0,0,0,0,0,0,0,0,0,0,0,0,0,0,0,0,0,
Simon Taylor,nizmox@gmail.com,+61411757997,1 Fleming Drive,,,Campbelltown,NSW,2560,AU,0,0,0,0,0,0,0,0,0,0,0,0,1,0,0,0,0,0,0,0,0,0,0,0,0,0,0,0,0,0,0,0,0,
Richard Munro,zaric73@yahoo.com.au,449055516,14 Moonarie Place,,,CROMER,NSW,2099,AU,2,0,1,1,1,2,1,1,1,2,1,1,0,0,0,0,0,0,0,0,0,0,0,0,0,0,0,0,0,0,0,0,0,
Ewan Love,ewan_s_love@hotmail.com,432177623,15 Parnoolar Crescent,,,Ferny Hills,Queensland,4055,AU,1,0,0,0,0,0,0,0,0,0,0,0,0,0,0,0,0,0,0,0,0,0,0,0,0,0,0,0,0,0,0,0,0,
Shannon Smith,shannonsmith79@yahoo.com.au,+61409810432,109 Dawson Bvd,,,Rural View,QLD,4740,AU,2,0,1,1,1,1,1,1,1,1,1,1,0,0,0,0,0,0,0,0,0,0,0,0,0,0,0,0,0,0,0,0,0,
Mark Steele,paularmy25@gmail.com,458478423,3 Seamist Circuit,,,Coolum Beach,QLD,4573,AU,0,0,0,0,0,0,0,0,0,0,0,0,1,0,0,0,0,0,0,0,0,0,0,0,0,0,0,0,0,0,0,0,0,
Jason McLoughlin,jasonm@adam.com.au,+61422347661,12 glenford avenue,Myrtle Bank,,Adelaide,SA,5064,AU,1,0,0,0,1,1,1,0,0,0,1,0,0,0,0,0,0,0,0,0,0,0,0,0,0,0,0,0,0,0,0,0,0,
