Name,Email,Phone,Address 1,Address 2,Address 3,City,State,Postal Code,Country,CoH_4PCore,CoH_2PCore,CoH_ECC,CoH_OKW,CoH_Solo,CoH_TP1,CoH_TP2,CoH_EBP,CoH_ERP,CoH_StuG,CoH_WorldBuilder,CoH_WarCrate,CoH_WorldDomination,CoH_AllBundle,CoH_6PlayerDomination,CoH_French,CoH_German,CoH_Italian,CoH_Dutch,CoH_Spanish,CoH_Polish,CoH_4PCorePaint,CoH_ECCPaint,CoH_OKWPaint,CoH_EBPPaint,CoH_ERPPaint,CoH_StuGPaint,CoH_MetalCore,CoH_MetalECC,CoH_MetalOKW,CoH_MetalEBP,CoH_MetalERP,CoH_MetalStuG,
Wang Pilin,865847507@qq.com,186 1687 4617,Guang Yan Lu,555 Long 2 Hao 503 Shi,,Jing An,Shanghai,200072,CN,0,0,0,0,1,1,1,0,0,0,1,1,0,0,0,0,0,0,0,0,0,1,1,1,1,1,1,0,0,0,0,0,0,
Cheng Chi Ho,dennislovesara@yahoo.com.hk,+85298068545,Room 1105 Tung Yat House Lei Tung Estate Apleichau,South District Hong Kong Island,,HKSAR,,hk,HK,0,0,0,0,0,0,0,0,0,0,0,0,1,0,0,0,0,0,0,0,0,0,0,0,0,0,0,0,0,0,0,0,0,
Toby Ng,tobyfive1222@gmail.com,+85298014567,Flat A 35/F Tower 2 Peninsula East,6 Shung Yiu Street Yau Tong Kowloon,,Hong Kong,Kowloon,0,HK,0,0,0,0,0,0,0,0,0,0,0,0,0,0,1,0,0,0,0,0,0,0,0,0,0,0,0,0,0,0,0,0,0,
Law Ka Chun,modong@ymail.com,95229088,Flat B 4/F Tung On Count 17-21 Tung On Street,Yau Ma Tai,,HongKong,,852,HK,1,0,1,1,1,1,0,1,1,1,0,0,0,0,0,0,0,0,0,0,0,0,0,0,0,0,0,0,0,0,0,0,0,
Kwon Jung Hyuk,guru@xguru.net,1026391360,ShinDaeBang-Dong 710,KyungNam GyoSu APT 102-2001,,DongJak-Gu ,Seoul,7064,KR,0,0,0,0,1,1,1,0,0,0,1,1,0,0,0,0,0,0,0,0,0,1,1,1,1,1,1,0,0,0,0,0,0,
Yune Wei Kiat Sebastian ,air_armada@yahoo.com.sg,+6597962599,Block 513B Yishun Street 51 Unit 12-369,,,Singapore ,Singapore ,762513,SG,0,1,0,0,0,0,0,0,0,0,0,0,0,0,0,0,0,0,0,0,0,0,0,1,1,0,0,0,0,0,0,0,0,
Lo man yung,superwind@netvigator.com,852-94714838,D flat 31 floor block 5 sherwood court,Kingswood villas,,Tin shui wai,,0,HK,1,0,0,0,1,1,0,1,1,1,0,0,0,0,0,0,0,0,0,0,0,0,0,0,0,0,0,0,0,0,0,0,0,
Wang Jia Zhen,annabeia@hotmail.com,886973079158,11F.-15 No.34 Sec. 2 Fuxing Rd. South Dist.,,,Taichung city,,402,TW,1,0,1,1,1,1,1,0,0,1,1,1,0,0,0,0,0,0,0,0,0,0,0,0,0,0,0,0,0,0,0,0,0,
Albert Tan,smiling_bull@hotmail.com,97634260,26 Jalan Datoh ,22-03,,Singapore,Singapore,329425,SG,0,0,0,1,1,1,1,1,1,1,0,1,0,0,0,0,0,0,0,0,0,1,1,0,0,0,0,0,0,0,0,0,0,
CHEUNG Hei Chun,tkp99172@gmail.com,69020803,Flat 3 22/F Yuk King House,King Ming Court,,Tseung Kwan O,,0,HK,1,0,1,1,0,0,0,0,0,0,0,1,0,0,0,0,0,0,0,0,0,0,0,0,0,0,0,0,0,0,0,0,0,
Matt Bryson,mgbryson@gmail.com,090-2002-1984,Mihara 1-22-16,iori-sei 102,,Okinawa-shi,Okinawa-ken,904-2155,JP,0,1,0,0,1,1,1,0,0,0,1,1,0,0,0,0,0,0,0,0,0,1,1,1,1,1,1,0,0,0,0,0,0,
Cyrus Au,cyrusau93@gmail.com,51182447,179 wing long wai ,2 Floor/Roof,,Kam Tin Yuen Long,New Territories,852,HK,1,0,0,0,0,0,0,0,1,0,0,0,0,0,0,0,0,0,0,0,0,0,0,0,0,0,0,0,0,0,0,0,0,
Wong Sung Lai Horace,horace1993@hotmail.com,852+63770037,Engineering Office 2/F Whitty Street Tram Depot,Connaught Road West Western District,,Hong Kong Island,,---,HK,1,0,1,1,1,1,0,1,1,1,0,0,0,0,0,0,0,0,0,0,0,0,0,0,0,0,0,0,0,0,0,0,0,
Xiaodi Gao,gaoxiaodi1988@163.com,13564488450,Room 2823 Block C,3333 Liuxian Aavenue,Tang Lang Cheng,Shenzhen,Guangdong,518071,CN,1,0,1,1,1,1,1,1,1,1,1,0,0,0,0,0,0,0,0,0,0,0,0,0,0,0,0,0,0,0,0,0,0,
Yep Chun Him,billyyep001138@yahoo.com.hk,+852-98516584,Unit H 19/F Reason Group Tower,403-413 Castle Peak Road,,Kwai Chung,N.T.,0,HK,1,1,1,1,1,1,0,0,1,0,0,0,0,0,0,0,0,0,0,0,0,0,0,0,0,0,0,0,0,0,0,0,0,
Ferry Fransiscus,ferry_buzz@yahoo.com,+6287877054443,Kav dki blok 142 no.8 jalan putri tunggal - meruya selatan,Kav dki blok 142 no.8,,Jakarta barat,Dki jakarta,11650,ID,1,1,1,1,1,1,0,1,1,0,0,0,0,0,0,0,0,0,0,0,0,0,0,0,0,0,0,0,0,0,0,0,0,
Kevin Wongso,kevin_w-cc@hotmail.com,68472945,Lalamove Unit 403 Innocentre 72 Tat Chee Ave Kowloon Tong,,,Hong Kong,Kowloon,-,HK,0,0,0,0,0,0,0,0,0,0,0,0,1,0,0,0,0,0,0,0,0,0,0,0,0,0,0,0,0,0,0,0,0,
James Kwan,kwanfamilie@gmail.com,+6585118788,27 HOLLAND GREEN,,,Singapore,,276150,SG,0,1,0,0,1,1,1,0,0,0,1,1,0,0,0,0,0,0,0,0,0,1,0,0,0,0,0,1,1,1,1,1,1,
Joe Wong,littlewcm@gmail.com,98608641,28F,Tower 2 Kowloon Commerce Centre,51 Kwai Cheong Road,Hong Kong,,0,HK,1,0,1,0,1,1,0,0,0,0,0,0,0,0,0,0,0,0,0,0,0,0,0,0,0,0,0,0,0,0,0,0,0,
Yip Chun Wing,chunwingyip2010@hotmail.com.hk,+85260220569,Flat 6 12/F Block L Hunghom Bay Centre Hunghom KLN,,,Hong Kong,,N/A,HK,0,0,0,0,0,0,0,0,0,0,0,0,1,0,0,0,0,0,0,0,0,0,0,0,0,0,0,0,0,0,0,0,0,
Li Yinan,lynzeta@outlook.com,+86 18537900152,Ban Dao Ming Zhu Bin He Nan Road Luo Long District ,,,Luoyang,Henan Province,471000,CN,0,0,0,0,0,0,0,0,0,0,0,0,1,0,0,0,0,0,0,0,0,0,0,0,0,0,0,0,0,0,0,0,0,
Chen Jingxi,cwjx888@126.com,+86 18611823651,Room 1-03 Unit 6Julongwan Community,No. 12 Zhongyue Road,Maojian District,Shiyan City,Hubei Province,442000,CN,0,0,0,0,0,0,0,0,0,0,0,0,0,0,1,0,0,0,0,0,0,0,0,0,0,0,0,0,0,0,0,0,0,
liu guanting,piscesboy@126.com,8618642681027,shahekou qu wansui jie meili xiang 125-1-3-1,,,Dalian,liaoning,116021,CN,1,0,1,1,1,1,1,1,1,1,1,0,0,0,0,0,0,0,0,0,0,0,0,0,0,0,0,0,0,0,0,0,0,
HY Cheng,h.y.cheng1989@gmail.com,+85292116817,Flat F 67/F Tower 7 Le Point,,,Tseung Kwan O,N.T.,999077,HK,1,0,1,1,1,1,0,0,1,0,0,0,0,0,0,0,0,0,0,0,0,0,0,0,0,0,0,0,0,0,0,0,0,
Sze Tak On,szetakon@gmail.com,95005645,Room LD 49/F Tower 2 Hemera LOPHAS Park TKO NT,,,Hong Kong,,0,HK,1,0,1,1,1,1,0,1,1,1,1,0,0,0,0,0,0,0,0,0,0,0,0,0,0,0,0,0,0,0,0,0,0,
WangYuanzhong,1805917869@qq.com,13439464811,ChaoYangQu XinFangLu LingLongShanXiaoQu 1-501,,,Beijing,Beijing,100020,CN,1,0,1,1,1,1,1,0,0,1,0,1,0,0,0,0,0,0,0,0,0,0,0,0,0,0,0,0,0,0,0,0,0,
SUNYIDONG,18626873828@163.com,18626873828,No.192 wenyilu xihuqu,,,HangZhou,ZheJiang,310010,CN,0,0,0,0,0,0,0,0,0,0,0,0,0,1,0,0,0,0,0,0,0,0,0,0,0,0,0,0,0,0,0,0,0,
Seokmin Ko,kisimi92@gmail.com,010 2551 2199,26 sinbong 2ro 108-dong 701-ho,,,Yongin-si,Suji-gu gyeonggi-do,16817,KR,0,0,0,0,1,1,1,0,0,0,0,1,0,0,0,0,0,0,0,0,0,1,1,1,1,1,1,0,0,0,0,0,0,
Lim Shizheng Eugene,gnehzihs@gmail.com,+6596285273,Block 663D Jurong West Street 65 ,03-235,,Singapore,Singapore,644663,SG,0,0,1,1,1,0,0,0,0,0,0,1,0,0,0,0,0,0,0,0,0,1,0,0,0,0,0,0,0,0,0,0,0,
Mofei Yan,chahj@foxmail.com,13391395155,Jiuting Street,Lane.473 No.16 Rm 501,,Shanghai,Shanghai,201615,CN,0,0,0,0,0,0,0,0,0,0,0,0,1,0,0,0,0,0,0,0,0,0,0,0,0,0,0,0,0,0,0,0,0,
Christopher Lee,c.lee87hk@gmail.com,+85292852564,15/F. Royalton II,116 Pokfulam Road pokfulam hong kong,,Pokfulam,Hong Kong Island,NA,HK,1,1,1,1,1,1,1,1,1,0,0,1,0,0,0,0,0,0,0,0,0,0,0,0,0,0,0,0,0,0,0,0,0,
JIAJUN LU,iamgod0936@gmail.com,+81-80-3525-0684,2-17-21 SHIMOMARUKO,HAIMU ISHIDA,ROOM NO. 101,OTA,TOKYO,146-0092,JP,0,0,0,0,1,1,1,0,0,0,1,1,0,0,0,0,0,0,0,0,0,1,1,1,1,1,1,0,0,0,0,0,0,
Gerard Tak Ho Yang,gthyang@netvigator.com,+852 9263 8030,24D Wing Cheung Court 37-47 Bonham Road,,,Hong Kong,HK,0,HK,-1,0,0,0,1,1,0,0,0,0,0,0,0,0,0,0,0,0,0,0,0,1,1,1,0,0,0,0,0,0,0,0,0,
PENG SHAO,martinp.shao@gmail.com,13869139901,Yang Guang Shun Cheng,No.2 Nan Shan Yuan,,Jinan,Shandong,250001,CN,1,0,1,1,1,1,0,1,2,1,0,0,0,0,0,0,0,0,0,0,0,0,0,0,0,0,0,0,0,0,0,0,0,
PO CHOU WANG,laijiason@gmail.com,936317364,6F.-2 NO.83-5 WUMIAO RD. LINGYA DIST.,,,Kaohsiung City,Taiwan,802617,TW,1,0,0,0,0,0,0,0,0,0,0,0,0,0,0,0,0,0,0,0,0,0,0,0,0,0,0,0,0,0,0,0,0,
KIVELEV ALEXEY,a.kivelev@gmail.com,15000731571,133 GuangFuXi Road,Bldg. 3 Apt. 2807,,Shanghai,Shanghai,200063,CN,1,0,0,0,1,0,0,0,0,0,0,0,0,0,0,0,0,0,0,0,0,0,0,0,0,0,0,0,0,0,0,0,0,
Benben Qian,qianbenben1@hotmail.com,13566191212,Room 2201 Building 24 Yu Shan Road 100 Pu Dong Xin Qu,,,Shanghai,Shanghai,200000,CN,1,0,1,1,1,1,0,1,1,1,0,0,0,0,0,0,0,0,0,0,0,0,0,0,0,0,0,0,0,0,0,0,0,
LEE DAE RYO,eos2m79@gmail.com,1083777518,153-1 Modeok-ro,WASHTERIA NO.301,,Jinjusi,Gyeongsangnamdo,52773,KR,-1,0,0,0,1,1,1,0,0,0,1,0,0,0,0,0,0,0,0,0,0,1,1,1,1,1,1,0,0,0,0,0,0,
Ian Yeo,ianyeotc@gmail.com,6581274449,Blk 259 Ang Mo Kio Ave 2 23-04,,,Singapore,Singapore,560259,SG,0,0,0,0,1,1,1,0,0,0,1,1,0,0,0,0,0,0,0,0,0,1,1,1,1,1,1,0,0,0,0,0,0,
Qi WAN,skye_wanqi@hotmail.com,+8615900903222,Room1202 No.5 Lane900 South Xizang Road ,,,Shanghai,Shanghai,200011,CN,1,0,1,1,1,1,0,0,0,0,0,0,0,0,0,0,0,0,0,0,0,0,0,0,0,0,0,0,0,0,0,0,0,
Low Yu Jie,lowyujie88@gmail.com,+60125740897,No. 30 Jalan Batai Laut 4,Taman Intan,,Klang,Selangor,41300,MY,1,0,0,0,1,2,1,0,0,0,1,2,0,0,0,0,0,0,0,0,0,1,1,1,1,1,1,1,0,1,0,0,0,
Michael Wu,sywu.michael@gmail.com,+85293167740,Flat G 27/F Tower 8 Ocean Shores 88 O King Road,Tseung Kwan O Sai Kung New Territories Hong Kong,,Hong Kong ,Hong Kong ,852,HK,1,0,1,1,1,1,1,0,1,1,0,1,0,0,0,0,0,0,0,0,0,0,0,0,0,0,0,0,0,0,0,0,0,
