Name,Email,Phone,Address 1,Address 2,Address 3,City,State,Postal Code,Country,CoH_4PCore,CoH_2PCore,CoH_ECC,CoH_OKW,CoH_Solo,CoH_TP1,CoH_TP2,CoH_EBP,CoH_ERP,CoH_StuG,CoH_WorldBuilder,CoH_WarCrate,CoH_WorldDomination,CoH_AllBundle,CoH_6PlayerDomination,CoH_French,CoH_German,CoH_Italian,CoH_Dutch,CoH_Spanish,CoH_Polish,CoH_4PCorePaint,CoH_ECCPaint,CoH_OKWPaint,CoH_EBPPaint,CoH_ERPPaint,CoH_StuGPaint,CoH_MetalCore,CoH_MetalECC,CoH_MetalOKW,CoH_MetalEBP,CoH_MetalERP,CoH_MetalStuG,
Matt Odland,matthew.odland@gmail.com,3204918493,202 Ellis Ave,,,Mankato,,56001,US,1,0,1,1,1,1,0,1,1,1,1,0,0,0,0,0,0,0,0,0,0,0,0,0,0,0,0,0,0,0,0,0,0,
Ryan Bremmer,ryancbremmer@gmail.com,3035639884,7155 West Walden Place,,,Littleton,,80128,US,0,0,0,0,1,1,1,0,0,0,1,1,0,0,0,0,0,0,0,0,0,1,1,1,1,0,1,0,0,0,0,0,0,
Joshua Buergel,jbuergel@gmail.com,12065275075,1751 N. 88th St.,,,Seattle,,98103,US,-1,0,0,0,0,0,0,0,0,0,0,0,0,0,0,0,0,0,0,0,0,1,0,0,0,0,0,0,0,0,0,0,0,
Rodrigo Maia Manique,rodrigo.manique@gmail.com,21985295574,Rua Senador Vergueiro 138 - apt 401,apt 401,,Rio de Janeiro,Rio de Janeiro,22230-001,BR,0,0,0,0,0,0,0,0,0,0,0,0,1,0,0,0,0,0,0,0,0,0,0,0,0,0,0,0,0,0,0,0,0,
Timothy Burnett,timbur@gmail.com,5128254424,12805 Tantara Dr,,,Austin,,78729,US,0,0,0,0,1,1,1,1,0,0,1,1,0,0,0,0,0,0,0,0,0,1,1,1,1,1,1,0,0,0,0,0,0,
Justin Miller,miller.justink@gmail.com,2816351121,8312 Glen Canyon Drive,,,Round Rock,,78681,US,1,0,1,1,1,1,0,0,1,0,0,0,0,0,0,0,0,0,0,0,0,0,0,0,1,0,1,0,0,0,0,0,0,
Philip Schafer,a79firefly@cox.net,4024086363,2444 N 45TH AVE,,,OMAHA,,681044525,US,-1,0,0,0,1,1,1,1,1,0,1,1,0,0,0,0,0,0,0,0,0,1,1,1,1,0,1,0,0,0,0,0,0,
John Anguiano,anguijm@gmail.com,8013355612,PSC 473 box 8-272,,,FPO,,96349,US,0,1,0,0,1,1,1,0,0,0,1,1,0,0,0,0,0,0,0,0,0,1,1,1,1,1,1,0,0,0,0,0,0,
Peter Licata,peter_licata@yahoo.com,9148059599,30 Summit Avenue,,,Central Valley,,10917,US,0,0,0,0,1,1,1,0,0,0,1,1,0,0,0,0,0,0,0,0,0,1,1,1,1,1,1,0,0,0,0,0,0,
Travis Palmer,tbpalmerp38@gmail.com,2402065995,1315 Peachtree Court,,,BOWIE,,20721,US,0,0,0,0,1,1,1,0,0,0,1,0,0,0,0,0,0,0,0,0,0,1,1,1,1,1,1,0,0,0,0,0,0,
Richard Sheppard,rick.sheppard@gmail.com,9072503228,1311 NW 23rd Lane,,,Ankeny,,50023,US,0,0,0,0,1,1,1,0,0,0,1,1,0,0,0,0,0,0,0,0,0,1,1,1,1,1,1,0,0,0,0,0,0,
David Heath,davidh@anti-idiots.com,17192532892,1021 North Market Plaza,Suite 107-146,Suite 107-146,Pueblo West,,81007-1531,US,0,0,0,0,1,1,1,0,0,0,1,0,0,0,0,0,0,0,0,0,0,1,1,1,1,1,1,0,0,0,0,0,0,
Elijah Figueroa,mrdigital@gmail.com,9193528700,304 Lake Lure Way,,,Fuquay Varina,,27526,US,0,0,0,0,1,1,1,1,0,0,1,1,0,0,0,0,0,0,0,0,0,1,1,1,1,1,1,0,0,0,0,0,0,
JOSHUA NEW,luckydogs10@yahoo.com,7346257814,5961 PARKVIEW,,,NEWPORT,,48166,US,0,1,0,0,1,1,1,0,0,0,1,1,0,0,0,0,0,0,0,0,0,1,1,1,1,1,1,0,0,0,0,0,0,
Brett Reichert,reichert.brett@gmail.com,+18156030006,14100 Luisium View,,,Pflugerville,,78660,US,0,1,0,0,0,1,0,0,0,0,0,0,0,0,0,0,0,0,0,0,0,0,0,0,0,0,1,0,0,0,0,0,0,
Brett Pennington,penningtondb@gmail.com,7133926669,2006 Cias Trail,,,Spring,,77386,US,0,0,0,0,1,1,1,0,0,0,0,1,0,0,0,0,0,0,0,0,0,1,1,1,1,1,1,0,0,0,0,0,0,
Fernando Calderon,stormtrooper119@gmail.com,8055985942,1518 Wallis Avenue,,,Santa Maria,,93458,US,0,0,-1,-1,0,1,1,-1,0,-1,0,1,0,0,0,0,0,0,0,0,0,1,1,1,1,1,1,1,1,1,1,1,1,
Andre Juteau,andre.juteau@infoslaurentides.com,5149451664,526 Dupre,,,Sainte-Sophie,Quebec,J5J 1J8,CA,0,0,0,0,1,1,0,0,0,0,0,0,0,0,0,1,0,0,0,0,0,1,1,0,0,0,0,0,0,0,0,0,0,
Ken Gutermuth,ken.gutermuth@gmail.com,828-308-5620,7766 Valley View Court,,,Hickory,,28602,US,-1,0,0,0,1,1,0,1,1,0,0,0,0,0,0,0,0,0,0,0,0,1,1,1,0,0,0,0,0,0,0,0,0,
Yen Poh,yenpoh201x@gmail.com,+1 669 254 0609,39224 Guardino Drive Apt 211,,,Fremont,,94538,US,0,0,0,0,1,1,1,0,0,0,1,1,0,0,0,0,0,0,0,0,0,1,1,1,1,1,1,0,0,0,0,0,0,
William Gawain Barnickle,gawain.barnickle@gmail.com,6154757590,4067 Ohio Street,,,San Diego,,92014,US,0,0,0,0,1,1,1,0,0,0,1,1,0,0,0,0,0,0,0,0,0,1,1,1,2,1,1,0,0,0,0,0,0,
Scott Demianiw,kwiskwis@yahoo.com,360-731-3293,2137 SE Aztec Ct,,,Port Orchard,,98367-8549,US,0,0,0,0,1,1,1,0,0,0,1,1,0,0,0,0,0,0,0,0,0,1,1,1,1,1,1,0,0,0,0,0,0,
Jason Reigel,stuff47maxx@gmail.com,9706867166,323 Windflower Way,,,Severance,,80550,US,1,0,0,0,1,0,0,1,1,0,0,0,0,0,0,0,0,0,0,0,0,0,0,0,0,0,0,0,0,0,0,0,0,
David Gervasio,dkickstarter@gervasio.net,703-969-1713,3021 Summershade Ct.,,,Herndon,,20171,US,-1,0,1,0,1,1,0,0,0,0,0,0,0,0,0,0,0,0,0,0,0,1,0,0,0,0,0,0,0,0,0,0,0,
Marcus Lauterbach,mlcopter@hotmail.com,7073493468,441 Intonation St,,,Henderson,,89011,US,0,0,0,0,0,1,0,0,0,0,0,1,0,0,0,0,0,0,0,0,0,1,0,0,1,1,0,0,0,0,0,0,0,
Paul Hartmann,3311lh33@gmail.com,4075755004,614 EAST HWY 50 - 226,,,CLERMONT,,34711,US,0,1,0,0,1,1,1,0,0,0,1,2,0,0,0,0,0,0,0,0,0,1,1,1,1,2,1,1,0,0,0,0,0,
Joseph Pereira,japereira1986@gmail.com,4105333581,1409 Flagstone Ct,,1986,Severn,,21144,US,-1,0,0,0,1,1,0,1,1,1,0,1,0,0,0,0,0,0,0,0,0,1,1,1,0,0,0,0,0,0,0,0,0,
Nathan Audet,nataud14@live.fr,14508065206,276 rue John-Ryan,,,Saint-Colomban,Quebec,J5K0N3,CA,0,0,0,0,1,1,1,1,0,1,1,1,0,0,0,1,0,0,0,0,0,1,1,1,0,1,0,0,0,0,0,0,0,
Johnny Asbury,kalico@mac.com,925-212-5304,1370 Funston Ave,,,San Francisco,,94122-2107,US,-1,0,0,0,1,1,1,0,0,0,1,1,0,0,0,0,0,0,0,0,0,1,1,1,1,1,1,0,0,0,0,0,0,
Shaun Anderson,rs_anderson@msn.com,4164203295,36 Pugsley Ave,,,Richmond Hill,Ontario,L4C8B6,CA,-1,0,-1,-1,1,1,1,-1,-1,-1,0,1,0,0,0,0,0,0,0,0,0,1,1,1,1,1,1,1,1,1,1,1,1,
Frederick Roy,jeancbeaucoup@hotmail.com,5142996887,1084 14 Avenue,,,Montreal,Quebec,H1b3t4,CA,1,0,0,0,1,2,2,0,0,0,1,1,0,0,0,1,0,0,0,0,0,1,1,1,1,1,2,0,0,0,0,0,0,
ZY Ho,zyster@gmail.com,+15126197983,4201 Monterey Oaks Blvd,Apt 917,,Austin,,78749,US,1,0,0,1,1,1,1,1,1,1,0,1,0,0,0,0,0,0,0,0,0,0,1,0,0,0,0,0,0,0,0,0,0,
Abraham Edelheit,ourlonelyhero101@gmail.com,718-615-1105,1972 Batchelder Street,,,Brooklyn,,11229,US,0,0,0,0,1,1,1,0,0,0,0,1,0,0,0,0,0,0,0,0,0,1,1,1,1,1,1,0,0,0,0,0,0,
Luis Andres  Chavez Martinez,achaveznet@gmail.com,+56963345313,Av. Jose Rabat 10670 casa Los Alamos 17 Chicureo,Colina,Condominio Los Maderos,Santiago,RM,9361966,CL,1,0,1,1,1,1,1,0,0,1,1,1,0,0,0,0,0,0,0,1,0,0,0,0,0,0,0,0,0,0,0,0,0,
HELLEN WAGNER PALONE NETO,netopalone@icloud.com,41991084041,Rua Amintas de Barros 330,Ap701,,Curitiba,PR,80060-205,BR,1,0,1,1,1,1,1,0,0,1,1,1,0,0,0,0,0,0,0,0,0,0,0,0,0,0,0,0,0,0,0,0,0,
David Volkert,dgvii@mindspring.com,6494319237,2265 S.W. 34th avenue,,,Fort. Lauderdale,,33312,US,-1,0,0,0,1,1,0,1,1,0,0,0,0,0,0,0,0,0,0,0,0,1,1,1,0,0,1,0,0,0,0,0,0,
James McPherson,jlmcp@hotmail.com,925-330-2981,821 Griffon Ct.,,,Danville,,94506,US,-1,0,0,0,1,1,1,0,0,0,0,0,0,0,0,0,0,0,0,0,0,1,1,1,1,1,1,0,0,0,0,0,0,
Jeff fike,jtfike@comcast.net,7632576988,12767 palisade st NE,,,Blaine,,55449,US,0,0,0,0,1,1,1,0,0,0,1,1,0,0,0,0,0,0,0,0,0,1,1,1,1,1,1,0,0,0,0,0,0,
Nick vey,nickvey24@gmail.com,17096908385,27 tree top drive,,,St johns,Newfoundland,A1H1A2,CA,1,0,1,1,1,2,2,1,1,1,1,2,0,0,0,0,0,0,0,0,0,1,1,1,1,1,1,0,0,0,0,0,0,
Francois-Xavier Tremblay,tremblay.francois@bell.ca,5063825803,62 Cocagne Cross,,,Cocagne,New Brunswick,E4R2J2,CA,0,0,0,0,1,1,1,0,0,0,1,1,0,0,0,0,0,0,0,0,0,1,1,1,1,1,1,0,0,0,0,0,0,
Jalil Lopez Ramirez,cejaleitor@hotmail.com,3313410057,Brocoli 113,,,Jaral del progreso ,Guanajuato ,38470,MX,0,0,0,0,0,0,0,0,0,0,0,0,1,0,0,0,0,0,0,0,0,0,0,0,0,0,0,0,0,0,0,0,0,
David Villafuerte,hm_dav@hotmail.com,992860335,juan procel n72-26,Yanacona,,Quito,pichincha,170134,EC,1,0,0,0,1,0,0,0,1,0,0,0,0,0,0,0,0,0,0,0,0,0,0,0,0,0,0,0,0,0,0,0,0,
Brett L Parker,bparker@new.rr.com,920-831-0308,224 E Hoover Ave,,,Appleton,,54915-2015,US,0,0,0,0,1,1,1,0,0,0,0,0,0,0,0,0,0,0,0,0,0,1,1,1,1,1,1,0,0,0,0,0,0,
william mead,thedmstrikes@yahoo.com,8139734678,32551 summerglade dr,,,wesley chapel,,33545,US,0,0,0,0,1,1,1,0,0,0,1,1,0,0,0,0,0,0,0,0,0,1,1,1,1,1,1,0,0,0,0,0,0,
Albert Heath,albert_e_heath@yahoo.com,7208910727,17107 Carriage Dale Ct.,,,Spring,,77379-4554,US,-1,0,0,0,1,1,0,0,0,0,0,0,0,0,0,0,0,0,0,0,0,1,1,1,0,0,0,0,0,0,0,0,0,
Ronny Martinez,ronnymartinez@gmail.com,+56 951022271,Pque nac Torres del Paine 2570,La Reserva,,La Serena,Coquimbo,1721664,CL,1,0,0,0,0,0,0,1,1,0,0,0,0,0,0,0,0,0,0,0,0,0,0,0,0,0,0,0,0,0,0,0,0,
Patrick Emond,dragonstarpe6@gmail.com,4504031440,3440 rue Lareau,,,Carignan,QC,J3L 0J3,CA,0,0,0,0,1,1,1,0,0,0,0,1,0,0,0,1,0,0,0,0,0,1,1,1,1,1,1,0,0,0,0,0,0,
Bob Breum,bobbreum@gmail.com,4074173333,1701 Missouri Ave,,,Sanford,,32771,US,-1,0,0,0,1,1,1,0,0,0,0,1,0,0,0,0,0,0,0,0,0,1,1,1,1,1,1,0,0,0,0,0,0,
Justin Verscheure,jlvgamer@yahoo.com,5178990309,13055 Apple Tree Lane,,,Dewitt,,48820,US,0,0,0,0,1,1,1,0,0,0,1,1,0,0,0,0,0,0,0,0,0,1,1,1,1,1,1,0,0,0,0,0,0,
Aaron M Pope,tzemati@gmail.com,5028022093,4317 Saratoga Hill Road,,,Louisville,,40299,US,-1,0,-1,-1,1,1,1,-1,-1,-1,1,2,0,0,0,0,0,0,0,0,0,1,1,1,1,1,1,1,1,1,1,1,1,
Bryce Garrison,bryce804@gmail.com,7039816521,6025 Calumet Ct,,,Gainesville,,20155,US,0,0,0,0,0,0,1,0,0,0,1,1,0,0,0,0,0,0,0,0,0,1,0,1,0,0,0,0,0,0,0,0,0,
alex strassburg,strassburg@atlanticbb.net,8146884631,12 pinegrove blvd,,,russell,,16345,US,0,1,0,0,1,1,1,0,0,0,1,1,0,0,0,0,0,0,0,0,0,1,1,1,1,1,1,0,0,0,0,0,0,
Daniel Hoppin,dch6305@hotmail.com,5175888148,11610 Lima Center Rd.,,,Clinton,,49236-9617,US,0,0,0,0,1,1,1,1,1,1,1,1,0,0,0,0,0,0,0,0,0,1,1,1,0,0,0,0,0,0,0,0,0,
JASON MCGOUIRK,csc_jcm@yahoo.com,2108835279,5175 Mayburn Bridge Rd,,,Milton,,32570,US,0,0,0,0,1,1,1,0,0,0,0,1,0,0,0,0,0,0,0,0,0,1,1,1,1,1,1,0,0,0,0,0,0,
Richard Rose,rar_73096@yahoo.com,4058022068,10308 Greenbriar pl,,,Oklahoma City,,73159,US,0,0,-1,-1,1,1,1,-1,-1,-1,1,1,0,0,0,0,0,0,0,0,0,1,1,1,1,1,1,1,1,1,1,1,1,
Douglas Gooding,stangnva@verizon.net,8042643360,10062 PURCELL RD,,,Henrico,,23228,US,0,0,0,0,1,2,2,0,0,0,1,2,0,0,0,0,0,0,0,0,0,2,1,2,2,3,1,0,0,0,0,0,0,
Phil Knapp,up.soxfan@gmail.com,9062011126,931 Meador Street,,,L'Anse,,49946,US,0,0,0,0,1,1,0,0,0,0,0,0,0,0,0,0,0,0,0,0,0,1,0,0,1,1,0,0,0,0,0,0,0,
denis johann,johann.denis@gmail.com,5548988205555,Rua Vereador Jacob Knabben da Silva,3050,bloco 9 apto 301,Palhoca,SC,88132-015,BR,1,0,0,0,0,0,0,1,1,0,0,0,0,0,0,0,0,0,0,0,0,0,0,0,0,0,0,0,0,0,0,0,0,
Markus Scherer,mwscherer@gmail.com,7703310048,304 Ellis Road,,,Rome,,30161,US,0,0,0,0,1,1,0,1,1,0,0,0,0,0,0,0,0,0,0,0,0,1,0,0,0,0,0,1,0,0,0,0,0,
Patrick G SMITH,psmithkgb@aol.com,13304624062,1202 Glenview Drive,,,Mogadore,,44260,US,0,0,0,0,1,1,1,0,0,0,0,1,0,0,0,0,0,0,0,0,0,1,1,0,1,1,1,0,0,0,0,0,0,
Erich Olson,ericheolson@gmail.com,19167475341,1508 Sharon Drive,,,Silver Spring,,20910,US,0,0,0,0,1,1,1,1,0,0,0,2,0,0,0,0,0,0,0,0,0,1,1,1,1,1,1,0,0,0,0,0,0,
Carlos Garza Kalionchiz,cgarzak@gmail.com,4692369132,6128 Berkshire Rd,,,McKinney,,75072,US,0,0,0,0,1,1,0,0,0,0,0,0,0,0,0,0,0,0,0,0,0,1,0,0,1,1,1,0,0,0,0,0,0,
Enrique Mesina,cgs_raverboy@yahoo.com,3236906723,1136 N Voyager Ln,,,Anaheim,,92801,US,-1,0,0,0,1,1,0,0,0,0,0,0,0,0,0,0,0,0,0,0,0,1,1,0,1,1,0,0,0,0,0,0,0,
Troy Scheffel,troy.scheffel@gmail.com,8159785296,12054 Bluestem Rd,,,Roscoe,,61073,US,0,0,0,0,1,1,1,0,0,0,1,1,0,0,0,0,0,0,0,0,0,1,1,1,1,1,1,0,0,0,0,0,0,
Ralf Grasser,grasser.ralf@gmail.com,7866608111,43387 Malin Ct,,,Ashburn,,20147,US,-1,0,0,0,1,2,1,0,0,0,1,1,0,0,0,0,1,0,0,0,0,1,1,1,1,1,1,0,0,0,0,0,0,
Kyle Crivello,kmcrivello@gmail.com,5592809043,3618 W Olive Ave,,,Fresno,,93722,US,0,0,1,1,1,1,1,2,1,2,1,1,0,0,0,0,0,0,0,0,0,1,0,0,0,0,0,0,0,0,0,0,0,
Steven D Smith,steveinfrisco@yahoo.com,9725236695,10105 Max Ln,,,Frisco,,75035,US,0,0,0,0,1,1,1,0,0,0,1,1,0,0,0,0,0,0,0,0,0,1,1,1,1,1,1,0,0,0,0,0,0,
Joe Dulaney,trck_1@yahoo.com,5035220159,3895 s peach way,,,Denver,,80237,US,-1,0,0,0,1,1,0,0,0,0,0,0,0,0,0,0,0,0,0,0,0,1,1,1,0,0,0,0,0,0,0,0,0,
Terry Dano,tldano@bellsouth.net,321-773-5905,113 Terry Street,,,Indian Harbour Beach,,32937-2736,US,0,1,0,0,1,1,1,0,0,0,1,2,0,0,0,0,0,0,0,0,0,1,1,1,1,2,1,0,0,0,0,0,0,
Michael Senglaub,mike.senglaub@gmail.com,2623491362,3960 hillside drive,Suite 201,,Delafield,,53018,US,0,0,0,0,1,1,1,0,0,0,1,1,0,0,0,0,0,0,0,0,0,1,1,1,1,1,1,0,0,0,0,0,0,
Phil Cozzo,pcozzo@gmail.com,5855036093,1321 Lakeville Lane,,,Webster,,14580,US,0,0,0,0,0,1,0,0,0,0,0,0,0,0,0,0,0,0,0,0,0,1,0,0,0,0,0,0,0,0,0,0,0,
Christopher Meyer,meyer.christopher.j@gmail.com,503928076,4146 SE Rex St,,,Portland ,,97202,US,-1,0,0,0,1,1,1,2,2,0,0,0,0,0,0,0,0,0,0,0,0,1,1,1,0,0,1,0,0,0,0,0,0,
Paeden Ascherl,paedenascherl@yahoo.com,3096133291,11200 N Manito Rd.,,,Manito,,61546,US,-1,0,0,0,1,1,1,0,0,0,0,1,0,0,0,0,0,0,0,0,0,1,1,1,1,1,1,0,0,0,0,0,0,
Bryan Pope,bryanpope@verizon.net,9724294769,4534 Glenshire Court,,,SACHSE,,75048,US,0,0,-1,-1,1,1,1,-1,-1,-1,1,1,0,0,0,0,0,0,0,0,0,1,1,1,1,1,1,1,1,1,1,1,1,
Guilherme Marques Fonseca Viana,guillerviana@yahoo.com.br,12991102954,Rua Hipodromo 1495,Mooca,AP 173 A,Sao Paulo,Sao Paulo,3162000,BR,1,0,0,0,0,0,0,0,0,0,0,0,0,0,0,0,0,0,0,0,0,0,0,0,0,0,0,0,0,0,0,0,0,
Corey S. Chabot,katarn48047@hotmail.com,5865666853,14775 Holly Ct.,,,Shelby Twp.,,48315,US,0,1,0,0,1,1,1,0,0,0,1,1,0,0,0,0,0,0,0,0,0,1,1,1,1,1,1,0,0,0,0,0,0,
Ryan Lee,ryanlee7132@gmail.com,6468862128,8811 54th Ave,,,Elmhurst,,11373-4543,US,0,0,0,0,0,0,0,0,1,0,0,0,0,0,0,0,0,0,0,0,0,0,0,0,0,0,0,0,0,0,0,0,0,
Neal Purchase,neal.purchase@bunkerit.com,802-793-2118,11 Aurel DR,,,Goffstown,,3045,US,0,0,0,0,2,1,1,0,0,1,0,1,0,0,0,0,0,0,0,0,0,1,1,1,1,1,1,0,0,0,0,0,0,
Jean-Thomas Martin,jean_thomasmartin@hotmail.com,15819961811,1-2450 Boulevard Bastien,,,Quebec,QC,G2B1B4,CA,1,0,1,1,1,2,1,1,1,1,1,1,0,0,0,1,0,0,0,0,0,1,0,1,1,1,1,0,0,0,0,0,0,
Robert Watts,robwatts59@yahoo.com,601-862-2740,20 River Bend Place,,,Flowood,,39232,US,0,0,0,0,1,1,1,0,0,0,0,1,0,0,0,0,0,0,0,0,0,1,1,1,1,1,1,0,0,0,0,0,0,
Scott Walton,scott1238131@yahoo.com,6148056951,1881 North Houston Pike ,,,South Vienna ,,45369,US,1,0,1,0,1,1,0,0,1,0,0,0,0,0,0,0,0,0,0,0,0,0,0,1,1,0,0,0,0,0,0,0,0,
Joao Carlos do Carmo Guimaraes,joaoccguimaraes1968@gmail.com,55-35-99840-4414,R Pedro Americo 174 Ap 19,C Grande,,Santos,Sao Paulo,11075400,BR,2,0,1,2,1,2,1,1,1,2,1,1,0,0,0,0,0,0,0,0,0,0,0,0,0,0,0,0,0,0,0,0,0,
Christopher Senn,c.senn@outlook.com,3054795306,4250 GALT OCEAN DR,PH-E,,Fort Lauderdale,,33308,US,0,0,0,0,1,1,0,0,1,0,0,0,0,0,0,0,0,0,0,0,0,1,0,0,0,0,0,0,0,0,0,0,0,
Clinton young,clintonyoung147@gmail.com,5404715096,461 locust ave,,,Waynesboro,,22980,US,0,0,0,0,1,1,0,1,1,0,0,0,0,0,0,0,0,0,0,0,0,1,0,0,0,0,0,0,0,0,0,0,0,
Fabio dos Santos Ribeiro,fabioribeiro@rmestudio.com.br,5513981703435,Rua Espirito Santo nr. 108 - Campo Grande,,,Santos,Sao Paulo,11075390,BR,1,0,0,0,0,0,0,0,0,0,0,0,0,0,0,0,0,0,0,0,0,0,0,0,0,0,0,0,0,0,0,0,0,
BRYAN ZORMEIER,bryan.zormeier@gmail.com,5202355245,10575 e Rose Hill st.,,,Tucson,,85747,US,1,0,1,1,1,1,0,0,0,0,0,0,0,0,0,0,0,0,0,0,0,0,0,0,0,0,0,0,0,0,0,0,0,
Brian Cannon,brianfreer@hotmail.com,360-334-1766,2600 NE Minnehaha St ,Apt 197,,Vancouver,,98665,US,0,1,0,0,1,1,1,0,0,0,1,1,0,0,0,0,0,0,0,0,0,1,1,1,1,1,1,0,0,0,0,0,0,
Michael J Spinella,mspinella@rcn.com,6109548177,4065 Ruth Road,,,Bethlehem,,18020-7854,US,0,0,0,0,1,2,0,0,0,0,0,1,0,0,0,0,0,0,0,0,0,2,1,1,1,1,1,0,0,0,0,0,0,
Matthew Piljek,matthew.piljek@gmail.com,6043580283,1254 Bombardier Cr,,,Victoria,BC,V9B 0R4,CA,0,0,0,0,1,1,1,0,0,0,1,1,0,0,0,0,0,0,0,0,0,1,1,1,1,1,1,0,0,0,0,0,0,
Brett kaiser,uncleflyngfester@yahoo.com,6304504551,1284 S West Fork dr,,,Lake forest,,60045,US,0,1,0,0,1,1,1,0,0,0,1,1,0,0,0,0,0,0,0,0,0,1,1,1,1,1,1,0,0,0,0,0,0,
Derek Kocher,kocher.derek@gmail.com,4169851640,47 Colbourne Crescent,,,Orangeville,Ontario,L9W5A7,CA,0,0,0,0,1,1,0,0,0,0,0,1,0,0,0,0,0,0,0,0,0,1,1,0,1,1,0,0,0,0,0,0,0,
Kevin Hicks,rufustreerudy@yahoo.com,2623850169,3834 Valley Creek Dr,,,Waukesha,,53189,US,0,0,0,0,1,1,1,0,0,0,0,1,0,0,0,0,0,0,0,0,0,1,1,1,1,1,1,0,0,0,0,0,0,
Cameron paddison,paddison.cameron@gmail.com,8584493441,4019 N Farwell ave St Robert's Parish,,,Shorewood,,53211,US,0,0,0,0,1,1,1,0,0,0,1,1,0,0,0,0,0,0,0,0,0,1,1,1,1,1,1,0,0,0,0,0,0,
Jeff Challand,stiles_1988@yahoo.com,712-540-7135,305 E 9th St,,,Spencer,,51301,US,0,0,0,0,1,1,1,0,0,0,0,1,0,0,0,0,0,0,0,0,0,1,1,0,0,0,0,1,0,0,0,0,0,
Martin,mjlaba@comcast.net,904-540-9925,1123 Eagle point dr,,,St. Augustine,,32092,US,0,0,1,1,0,1,0,0,1,0,0,0,0,0,0,0,0,0,0,0,0,1,0,0,0,0,0,0,0,0,0,0,0,
Barry F Wilson,wilsonbf@gmail.com,2157683039,217 W DUPONT ST,,,RIDLEY PARK,,19078,US,-1,0,0,0,1,1,1,0,0,0,1,2,0,0,0,0,0,0,0,0,0,1,1,1,1,1,1,0,0,0,0,0,0,
Brian sterling,sn00p1974@hotmail.com,3523594332,2336 sw 73rd Terrace,,,Gainesville,,32607,US,0,0,0,0,1,1,1,0,0,0,0,1,0,0,0,0,0,0,0,0,0,1,1,1,1,1,1,0,0,0,0,0,0,
Rami Sunnari,rsunnari@gmail.com,4403392600,298 CHERRY LN,Suite 335-330,,New Castle,,19720,US,-1,0,0,0,0,0,0,0,0,0,0,0,0,0,0,0,0,0,0,0,0,1,1,0,0,1,1,0,0,0,0,0,0,
Scott Bechen,ponchbech@hotmail.com,5635422346,2883 Ridgeway Ave,,,Dubuque,,52001-5471,US,0,1,0,0,1,1,1,0,0,0,1,0,0,0,0,0,0,0,0,0,0,1,1,1,1,1,1,0,0,0,0,0,0,
Carl D Copeland,kkarl22copy@outlook.com,484-356-5716,21 Chandler Drive,,,West Chester,,19380-6801,US,0,1,0,0,1,1,1,0,0,0,0,0,0,0,0,0,0,0,0,0,0,1,1,1,1,1,1,0,0,0,0,0,0,
Erik Schick,epschick@hotmail.com,9183614183,2371 Peachtree Ln.,,,San Jose,,95128,US,0,0,0,0,1,1,0,0,0,0,0,0,0,0,0,0,0,0,0,0,0,1,0,0,0,0,0,0,0,0,0,0,0,
Frederico Gondim,fgondim@gmail.com,+5561996478774,SQS 402 Bloco K Ap. 203 - Asa Sul,CPF 037.869.366-25,,Brasilia,DF,70236110,BR,1,0,0,0,1,1,0,0,0,0,0,0,0,0,0,0,0,0,0,0,0,0,0,0,0,0,0,0,0,0,0,0,0,
Michael Tinus,wolverine44706@yahoo.com,3309493632,1510 CARNWISE ST SW,,,Canton,,44706,US,0,0,1,0,1,1,0,1,1,0,0,0,0,0,0,0,0,0,0,0,0,1,0,0,0,0,0,0,0,0,0,0,0,
Petar,pbadzic@gmail.com,9037465986,5649 Naaman Forest Blvd,,,Garland,,75044,US,-1,0,0,0,1,1,1,0,0,0,1,0,0,0,0,0,0,0,0,0,0,1,1,1,1,1,1,0,0,0,0,0,0,
Jeff Peters,jpeters55@roadrunner.com,330-998-1583,635 Rolling Brooke Way,,,Northfield,,44067,US,0,0,0,0,1,1,1,0,0,0,1,1,0,0,0,0,0,0,0,0,0,1,1,1,1,1,1,0,0,0,0,0,0,
Michael Lundin,drelfman@aol.com,6107615729,803 W Spencer Ave,,,Marion,,46952,US,0,1,0,0,1,1,1,0,0,0,1,1,0,0,0,0,0,0,0,0,0,1,1,1,1,1,1,0,0,0,0,0,0,
Steven Ellis,majorboneslive@gmail.com,9186075482,3208 E 85th Pl,,,Tulsa,,74137,US,-1,0,0,0,0,0,0,0,0,0,0,1,0,0,0,0,0,0,0,0,0,1,0,0,0,0,0,0,0,0,0,0,0,
Corey Timmons,cltimmons@gmail.com,619 787-4430,4740 Norma Dr,,,San Diego,,92115,US,-1,0,0,0,1,1,1,0,0,0,1,1,0,0,0,0,0,0,0,0,0,1,1,1,1,1,1,0,0,0,0,0,0,
Don Clevenger,djclev@mac.com,4699552294,210 Island Falls,,,Sunnyvale,,75182,US,-1,0,0,0,1,1,1,0,1,1,0,0,0,0,0,0,0,0,0,0,0,1,1,1,0,0,0,0,0,0,0,0,0,
Jacob Anderson,gomeruh60@yahoo.com,2108636801,143 Ridgecrest Loop,,,Dothan,,36301,US,0,0,0,0,1,1,1,0,0,0,1,1,0,0,0,0,0,0,0,0,0,1,1,1,1,1,1,0,0,0,0,0,0,
Jose Guilmette,joseguilmette@gmail.com,4164275553,18 Rowland Street,,,Toronto,ON,M6P1M3,CA,0,0,1,1,1,1,0,1,1,2,1,0,0,0,0,0,0,0,0,0,0,1,0,0,0,0,0,0,0,0,0,0,0,
Bruno Penna Barbosa de Almeida,dbrunob@gmail.com,2267925558,38 Rutherford Dr,,,Stratford,ON,N5A6S2,CA,0,0,0,0,1,1,1,0,0,0,0,0,0,0,0,0,0,0,0,0,0,1,1,0,0,0,1,0,0,0,0,0,0,
Tai-Ho Chen,taihochen@hotmail.com,8083494526,1534 Harbor Blvd,,,Belmont,,94002,US,0,0,0,0,1,1,1,0,0,0,0,1,0,0,0,0,0,0,0,0,0,1,1,1,1,1,1,0,0,0,0,0,0,
Dan Spanel,dspanel@dpcs.co,970-461-4599,1004 W. 31st St.,,,Loveland,,80538,US,0,0,0,0,1,1,1,0,0,0,1,1,0,0,0,0,0,0,0,0,0,1,1,1,1,1,1,0,0,0,0,0,0,
Stephen Wong,stevewong0621@gmail.com,416-459-1643,2352 Folkway Drive ,,,Mississauga ,Ontario ,L5L3B6 ,CA,0,0,0,0,0,1,1,0,0,0,1,0,0,0,0,0,0,0,0,0,0,1,1,1,1,1,1,0,0,0,0,0,0,
James Richards,fyrmedic42@gmail.com,3609071673,2209 NW 138th St,,,Vancouver,,98685,US,0,0,0,0,1,1,1,1,1,0,0,1,0,0,0,0,0,0,0,0,0,1,0,0,0,0,0,0,0,0,0,0,0,
Marlon Cruz Braga,marlonrj@yahoo.com,+5541988059354,Rua Vinte E Um de Abril 158 Ap 1 Alto da Rua XV,,,Curitiba,Parana,80045-160,BR,1,0,1,0,1,1,0,1,1,0,0,0,0,0,0,0,0,0,0,0,0,0,0,0,0,0,0,0,0,0,0,0,0,
Francisco Tudela,ftudela@belenjesuit.org,3059033097,14714 SW 153rd PL,,,Miami,,33196,US,-1,0,0,0,1,1,1,0,1,0,0,1,0,0,0,0,0,0,0,0,0,1,1,1,0,0,0,0,0,0,0,0,0,
Fabio Nishihara,fabio.nishihara@hotmail.com,+55 11 985351848,Av. Eng. Armando de,Arruda Pereira 1420,,Sao Paulo,Other (Non U.S.),04308-001,BR,1,1,1,1,1,1,0,1,1,1,0,0,0,0,0,0,0,0,0,0,0,0,0,0,0,0,0,0,0,0,0,0,0,
Scott Johnson,scotty.johnson1016@gmail.com,4804318055,224 S 800 W.,,,Provo,,84601,US,0,0,0,0,1,1,0,0,0,0,0,0,0,0,0,0,0,0,0,0,0,1,1,1,0,1,0,0,0,0,0,0,0,
Joe Vargas,angryjoe@angryjoeshow.com,5122500495,1905 buffalo speedway,,,leander,,18641,US,0,0,0,0,1,1,1,1,0,0,1,0,0,0,0,0,0,0,0,0,0,1,1,1,1,1,1,0,0,0,0,0,0,
Preston Ward,lordratpw@gmail.com,9256865140,4283 Treat Blvd.,,,Concord,,94521,US,0,0,0,0,1,1,1,0,0,0,1,1,0,0,0,0,0,0,0,0,0,1,1,1,1,1,1,0,0,0,0,0,0,
Manuel Torres Gutierrez ,mtorresg85@gmail.com,4423929670,Hacienda Vegil 408 Jardines de la Hacienda,,,Queretaro ,Queretaro ,76180,MX,1,0,1,0,0,1,1,0,0,0,0,0,0,0,0,0,0,0,0,0,0,0,0,0,0,0,0,0,0,0,0,0,0,
Adolfo Pentagna Silvestre,adolfosprj@yahoo.com.br,+55 21 997749804,Rua Sao Joao Batista 27 ,Apt 703,Botafogo,Rio de Janeiro,Rio de Janeiro,22270030,BR,0,0,0,0,1,1,1,0,0,0,1,1,0,0,0,0,0,0,0,0,0,1,1,1,1,1,1,0,0,0,0,0,0,
Jonathan Altland,jonathan.altland@gmail.com,4127198434,100 Grove Hill Rd,,,Baden,,15005,US,1,1,0,0,1,2,1,0,0,0,1,1,0,0,0,0,0,0,0,0,0,1,1,1,1,1,1,0,0,0,0,0,0,
Roger Avedon,s1@avedon.org,6504558188,385 Pinehill Rd,,,Hillsborough,,94010,US,0,0,0,0,1,1,1,0,0,0,1,1,0,0,0,0,0,0,0,0,0,1,1,1,1,1,1,0,0,0,0,0,0,
Rodger Moore ,evolvingmoore@charter.net,775-786-2325 ,2300 Dickerson Road No. 41 ,,,Reno ,,89503,US,0,0,0,0,1,1,0,1,0,0,0,0,0,0,0,0,0,0,0,0,0,1,0,0,0,1,0,0,0,0,0,0,0,
Charles Sarrazin-Boucher,superchuck8@hotmail.com,4507757652,1078 rue de la Roche,,,Granby,QC,J2J2J1,CA,-1,0,0,0,1,1,1,0,0,0,1,1,0,0,0,1,0,0,0,0,0,1,1,1,1,1,1,0,0,0,0,0,0,
Kasim Shake,kshake1@gmail.com,8312774474,6028 213th Avenue Ct E,,,Lake Tapps,,98391,US,0,0,0,0,1,1,0,0,1,0,0,0,0,0,0,0,0,0,0,0,0,1,1,1,0,0,0,0,0,0,0,0,0,
Jacob Rayfield,jrayfie5@uncc.edu,7047713157,1220 FIRETHORNE CLUB DR,,,WAXHAW,,28173,US,-1,0,0,0,1,1,0,1,1,1,0,1,0,0,0,0,0,0,0,0,0,1,1,1,0,0,0,0,0,0,0,0,0,
Frank Marsh,fur-ank@sympatico.ca,2268202281,159 Jolliffe Ave,,,Rockwood,Ontario,N0b2k0,CA,0,0,0,0,0,1,0,0,1,0,0,0,0,0,0,0,0,0,0,0,0,1,0,0,0,0,0,0,0,0,0,0,0,
Chris Ploof,chris@chrisploof.com,5086316203,93 Morningside Rd,,,Worcester,,1602,US,0,1,0,0,1,1,1,0,0,0,1,1,0,0,0,0,0,0,0,0,0,1,1,1,1,1,1,0,0,0,0,0,0,
Eric Gagnon,tobrook@ymail.com,5148832398,1578 St-Andre,,,montreal,QC,h2l3t6,CA,0,0,0,0,1,1,1,0,0,0,1,1,0,0,0,0,0,0,0,0,0,1,1,1,1,1,1,0,0,0,0,0,0,
Fernando Gonzalez,fernando.gonzalez14.fg@gmail.com,3235710495,17905 Alburtis Ave,,,Artesia,,90701,US,0,0,1,1,1,1,1,0,0,1,1,1,0,0,0,0,0,0,0,0,0,1,0,0,0,0,0,0,0,0,0,0,0,
Javier de la Maza,freekyflow@gmail.com,992187183,Elena Blanco 1162 depto 606 Providencia,Providencia,,Santiago,RM,7501079,CL,1,0,0,0,0,1,0,1,1,1,0,0,0,0,0,0,0,0,0,0,0,0,0,0,0,0,0,0,0,0,0,0,0,
Christopher Cornish,cornish6@gmail.com,2485146137,1014 W Marshall St,,,Ferndale,,48220,US,1,0,0,1,1,1,1,1,1,2,1,1,0,0,0,0,0,0,0,0,0,0,1,0,0,0,0,0,0,0,0,0,0,
michael chavez,originaltheory88@gmail.com,5672395931,320 County 12 Blvd,,,Kenyon,,55946,US,1,0,1,1,1,2,1,1,1,1,1,1,0,0,0,0,0,0,0,0,0,1,0,0,0,0,0,0,0,0,0,0,0,
Ramie Vetter,knucklepunch12@gmail.com,5073999802,775 200th Ave,,,Fairmont,,56031,US,1,0,1,1,2,2,3,1,1,1,2,2,0,0,0,0,0,0,0,0,0,1,1,1,1,1,1,0,0,0,0,0,0,
Christian Rilling,christian.rilling1@gmail.com,3606073006,7408 NE 65th St,,,Vancouver,,98662,US,0,1,0,0,1,1,1,0,0,0,1,1,0,0,0,0,0,0,0,0,0,1,1,1,1,1,1,0,0,0,0,0,0,
Mariano Martin Mendilahatzu Perez,marianomendi@gmail.com,1133159468,Miranda 4923,,,Ciudad Autonoma de Buenos Aires,CABA,1407,AR,1,0,0,0,1,1,0,0,0,1,0,0,0,0,0,0,0,0,0,1,0,0,0,0,0,0,0,0,0,0,0,0,0,
Peter Van Ruiten,pvanruiten@comcast.net,7705542424,720 Hillmont Dr.,,,Loganville,,30052,US,0,0,0,0,1,1,0,0,0,0,0,0,0,0,0,0,0,0,0,0,0,1,0,0,0,0,0,0,0,0,0,0,0,
Bob Mesrop,bmesrop@yahoo.com,8053882023,893 W. Highland Drive ,,,Camarillo,,93010,US,0,0,0,0,1,1,1,0,0,0,1,1,0,0,0,0,0,0,0,0,0,1,1,1,1,1,1,0,0,0,0,0,0,
Sean Boone,s_boone@outlook.com,8322474216,2701 N Grapevine Mills Blvd,Apt 523,,Grapevine,,76051,US,-1,0,0,0,0,0,0,0,0,0,0,0,0,0,0,0,0,0,0,0,0,1,0,0,0,0,0,0,0,0,0,0,0,
Stephen Shedden,admlt13@hotmail.com,8659648791,2576 Berringer Station Lane,,,Knoxville,,37932,US,0,0,0,0,1,1,1,0,0,0,0,1,0,0,0,0,0,0,0,0,0,1,1,1,1,1,1,0,0,0,0,0,0,
Garret Arcoraci,cybergarret@gmail.com,5854654938,230 Chestnut Hill drive,,,Rochester,,14617,US,0,0,0,0,1,1,1,0,0,0,1,1,0,0,0,0,0,0,0,0,0,1,1,1,1,1,1,0,0,0,0,0,0,
John Francis,jqf102280@yahoo.com,4045567762,50 Rocky Ford rd ne,,,Atlanta,,30317-1321,US,0,0,0,0,1,1,1,0,0,0,0,1,0,0,0,0,0,0,0,0,0,1,1,1,1,1,1,0,0,0,0,0,0,
Albert Chan,albertmobychan@hotmail.com,8476442358,8818 Parkside Avenue,,,Morton Grove,,60053,US,0,0,0,0,1,1,1,0,0,0,1,1,0,0,0,0,0,0,0,0,0,1,1,1,1,1,1,0,0,0,0,0,0,
George Gillaspie,gillygc@gmail.com,785-506-4354,1930 SW Westport Dr Ste 2,,,Topeka,,66604-4055,US,0,0,0,0,2,3,2,0,0,0,2,2,0,0,0,0,0,0,0,0,0,3,3,3,3,3,3,0,0,0,0,0,0,
Dan Quayle,dquayle@sprynet.com,6102650896,353 Heritage Ln,,,King of Prussia,,19406,US,0,0,0,0,1,1,1,0,0,0,1,1,0,0,0,0,0,0,0,0,0,1,1,1,1,1,1,0,0,0,0,0,0,
Brian Simoes ,tedsalad68@comcast.net,5082361852,621 School Street,,,North Dighton ,,2764,US,0,0,0,0,1,1,0,0,0,0,0,0,0,0,0,0,0,0,0,0,0,1,0,0,0,0,0,0,0,0,0,0,0,
Andrew Givens,eftakoma@aol.com,3015659451,531 Albany Ave,,,Takoma Park,,20912-4142,US,0,0,0,0,1,1,1,0,0,0,1,1,0,0,0,0,0,0,0,0,0,1,1,1,1,1,1,0,0,0,0,0,0,
Martin Opromolla,rayearth83@gmail.com,111558327725,Austria 2128 6 13,Piso 6 Depto 13,CUIL 20-29.989.029-6,Capital Federal,Argentina,1425,AR,1,0,1,1,1,1,0,1,1,1,0,0,0,0,0,0,0,0,0,0,0,0,0,0,0,0,0,0,0,0,0,0,0,
Greg Hamilton,greg.hamilton@rogers.com,226 647 0172,200 Michener cres ,,,Kitchener,Ontario,N2a 3v9,CA,0,0,0,0,1,1,1,0,0,0,1,1,0,0,0,0,0,0,0,0,0,1,1,1,1,1,1,0,0,0,0,0,0,
Russell Rice,rice.russell@gmail.com,4088328505,1030 CEDAR STREET,,,SAN CARLOS,,94070,US,0,0,0,0,1,1,1,0,0,0,1,1,0,0,0,0,0,0,0,0,0,1,1,1,1,1,1,0,0,0,0,0,0,
ron hathaway,ron9118@nycap.rr.com,5188799854,505 gansevoort rd,,,fort edward,,12828,US,0,0,0,0,2,2,3,0,0,0,1,3,0,0,0,0,0,0,0,0,0,4,2,2,2,2,2,0,0,0,0,0,0,
Michael McVeigh,mikenubian@yahoo.com,3144782264,170 Arcadia Way Ln,,,New Haven,,63068,US,0,0,0,0,0,0,0,0,0,0,0,0,0,0,0,0,0,0,0,0,0,0,0,0,0,0,0,1,0,0,0,0,0,
Mark Jung,markjung424@gmail.com,9028304744,31 Crownridge Drive,,,Bedford,Nova Scotia,B4B 0X4,CA,0,0,0,0,1,1,1,0,0,0,1,1,0,0,0,0,0,0,0,0,0,1,1,1,1,1,1,0,0,0,0,0,0,
Mario Capizzo,capizzomv@gmail.com,8019283772,2110 W FERNSIDE ST,,,WEST HAVEN,,84401-6890,US,-1,0,0,0,1,1,1,0,0,0,1,1,0,0,0,0,0,0,0,0,0,1,1,1,1,1,1,0,0,0,0,0,0,
William Styczinski,omgi8myapple@yahoo.com,2068238027,2509 S Ainsworth Ave,,,Tacoma,,98405,US,-1,0,0,0,1,1,1,0,0,0,1,1,0,0,0,0,0,0,0,0,0,1,1,1,1,1,1,0,0,0,0,0,0,
Juan Saavedra,ignaciosaavedraflores@gmail.com,987356962,955,Santa Teresa La Ligua Chile,,La Ligua,Valparaiso,2030000,CL,1,0,0,1,0,0,0,0,0,0,0,0,0,0,0,0,0,0,0,1,0,0,0,0,0,0,0,0,0,0,0,0,0,
Chad Bower,chadbower379@gmail.com,6077316623,35 Sunnyside Dr,,,Elmira,,14905,US,0,1,0,0,1,1,1,0,0,0,1,0,0,0,0,0,0,0,0,0,0,1,1,1,1,1,1,0,0,0,0,0,0,
Michael Lee,elva@pandagm.com,8188601783,4018 West 38th Avenue,,,Vancouver,British Columbia,V6N2Y9,CA,0,0,0,0,0,0,0,0,0,0,0,0,0,0,0,0,0,0,0,0,0,1,0,0,0,0,0,0,0,0,0,0,0,
Philip A Williams,hmknuckels@msn.com,706-616-1373,PO Box 97,600 Oak Grove Road ,,Pine Mountain,,31822,US,0,1,0,0,1,1,0,1,0,0,0,1,0,0,0,0,0,0,0,0,0,1,1,1,0,1,1,0,0,0,0,0,0,
MARTIN LOPEZ SUAREZ,pilotmls@hotmail.com,+5219931174136,PROL. DE JUAN XXIII S/N PRIVADA LOS OLIVOS CASA 2 VILLA PARRILLA,,,VILLAHERMOSA,TABASCO,86280,MX,0,0,0,0,0,0,0,0,0,0,0,0,0,1,0,0,0,0,0,1,0,0,0,0,0,0,0,0,0,0,0,0,0,
Conner Supplee,soonersrock2006@gmail.com,14056230597,17104 Fox Prowl Lane,,,Edmond,,73012,US,-1,0,0,0,1,1,1,0,0,0,1,1,0,0,0,0,0,0,0,0,0,1,1,1,1,1,1,0,0,0,0,0,0,
Matthew T. Gurney,gurneywars@buckeye-express.com,4197947558,2605 Pine Trace Dr,,,Maumee,,43537,US,0,0,0,0,1,1,1,0,0,1,0,1,0,0,0,0,0,0,0,0,0,1,1,1,1,1,1,0,0,0,0,0,0,
Sean Misner,smisner@gmail.com,14077493023,3304 Hawthorne ave,,,Rockledge,,32955,US,0,0,0,0,1,1,1,0,0,0,1,1,0,0,0,0,0,0,0,0,0,1,1,1,1,1,1,0,0,0,0,0,0,
JASON FRITZ,hey473@yahoo.com,3183080221,517 Humming bird lane,,,Alexandria,,71303,US,0,1,1,1,1,1,1,1,1,1,1,1,0,0,0,0,0,0,0,0,0,1,0,0,0,0,0,0,0,0,0,0,0,
Jason Op de Beeck,infantry031@hotmail.com,4383915867,67 rue Principale,,,Sainte-Angele-de-Monnoir,Quebec,J0L1P0,CA,0,0,1,1,1,1,1,0,0,1,0,1,0,0,0,0,0,0,0,0,0,1,0,0,0,0,0,0,0,0,0,0,0,
Patrick Cox,pat@mailcox.com,5035548656,32011 NE Wilsonville Rd,,,Newberg,,97132,US,0,0,0,0,1,1,1,0,0,0,1,1,0,0,0,0,0,0,0,0,0,1,1,1,1,1,1,0,0,0,0,0,0,
Jess Boronico,chippyshop60@yahoo.com,5167253812,4 Brookside Drive,,,Middlebury,,6762,US,0,0,0,0,1,1,2,0,0,0,2,1,0,0,0,0,0,0,0,0,0,1,1,1,1,1,1,0,0,0,0,0,0,
David Nixon,david.nixon@dade-group.com,7039091409,12587 Fair Lakes Circle,155,,Fairfax,,22033,US,1,0,0,0,1,1,1,0,0,0,1,1,0,0,0,0,0,0,0,0,0,1,1,1,1,1,1,0,0,0,0,0,0,
Mauricio Eduardo Negrete Rodiguez,link524@hotmail.com,5546499849,Calle 10 95 Colonia Espartaco Delegacion Coyoacan,,,Ciudad de Mexico,Ciudad de Mexico,4870,MX,1,0,0,1,0,1,0,0,0,0,0,1,0,0,0,0,0,0,0,0,0,0,0,0,0,0,0,0,0,0,0,0,0,
Mark K Gleason,guru2309@hotmail.com,3183562406,516 Royal Street,,,Natchitoches,,71457,US,0,0,0,0,1,1,1,0,0,0,1,1,0,0,0,0,0,0,0,0,0,1,1,1,1,1,1,0,0,0,0,0,0,
Greg Betchart,bestbayattorney@gmail.com,5108215087,3830 Main Street,,,Fremont,,94538,US,0,0,0,0,1,1,1,0,0,0,1,1,0,0,0,0,0,0,0,0,0,1,1,1,1,1,1,0,0,0,0,0,0,
Michael McVeigh,mercurius20002020@gmail.com,3144782264,170 Arcadia Way Ln,,,New Haven,,63068,US,0,0,0,0,1,1,1,0,0,0,1,1,0,0,0,0,0,0,0,0,0,1,1,1,2,1,1,0,0,0,0,0,0,
Kevin MacLean,empire33334444555@yahoo.com,7025462468,2876 Knoxville Ct,,,Henderson,,89052-6976,US,0,0,-1,-1,0,1,1,-1,-1,-1,1,1,0,0,0,0,0,0,0,0,0,1,1,1,1,1,1,1,1,1,1,1,1,
Diego Martin Lopez,cocolopez_12005@hotmail.com,5492615175302,French 136,,,Mendoza,Mendoza,5519,AR,1,0,0,0,1,1,0,1,1,0,0,0,0,0,0,0,0,0,0,1,0,0,0,0,0,0,0,0,0,0,0,0,0,
Sean Forbush,sean.forbush@gmail.com,2146790609,5845 S. Gateway Rd.,,,Las Vegas,,89120,US,0,0,0,0,1,1,1,0,0,0,1,1,0,0,0,0,0,0,0,0,0,1,1,1,1,1,1,0,0,0,0,0,0,
Gianpaolo Coletto,ish974@gmail.com,9412769691,4539 Alligator Flag Cir,,,West Melbourne,,32904,US,-1,0,0,0,1,1,1,0,0,0,1,1,0,0,0,0,0,0,0,0,0,1,1,1,1,1,1,0,0,0,0,0,0,
WILLIAM ISSAO ASANUMA,wasanuma@gmail.com,+5511983567071,Rua Dom Bernardo Nogueira 500,Apto 14 - Vila Gumercindo,,Sao Paulo,SP,04134-000,BR,1,0,0,0,1,1,0,0,1,0,1,0,0,0,0,0,0,0,0,0,0,0,0,0,0,0,0,0,0,0,0,0,0,
Michael Floyd,mfloyd01@hamline.edu,6515921348,972 Iowa Ave W,,,Saint Paul,,55117-3357,US,0,0,0,0,1,1,1,0,0,0,1,1,0,0,0,0,0,0,0,0,0,1,1,1,1,1,1,0,0,0,0,0,0,
Alex Rechevskiy,alex.rechevskiy@gmail.com,4157947283,1700 Dalehurst Avenue,,,Los Altos,,94024,US,0,0,0,0,1,1,1,0,0,0,1,1,0,0,0,0,0,0,0,0,0,1,1,1,1,1,1,0,0,0,0,0,0,
Layne Hatfield,layneh713@gmail.com,5126599455,11010 Tangleridge Cir,,,Austin ,,78736,US,1,0,0,1,1,1,0,1,1,1,0,1,0,0,0,0,0,0,0,0,0,0,1,0,0,0,0,0,0,0,0,0,0,
Daniel mak,h2omak@gmail.com,817886332,2314 Lipscomb st,,,Fort worth,,76110,US,0,1,0,1,1,1,1,1,1,1,0,1,0,0,0,0,0,0,0,0,0,1,1,0,0,0,0,1,0,0,0,0,0,
