Name,Email,Region,Phone,Address 1,Address 2,Address 3,City,State,Postal Code,Country,CoH_4PCore,CoH_2PCore,CoH_ECC,CoH_OKW,CoH_Solo,CoH_TP1,CoH_TP2,CoH_EBP,CoH_ERP,CoH_StuG,CoH_WorldBuilder,CoH_WarCrate,CoH_WorldDomination,CoH_AllBundle,CoH_6PlayerDomination,CoH_French,CoH_German,CoH_Italian,CoH_Dutch,CoH_Spanish,CoH_Polish,CoH_4PCorePaint,CoH_ECCPaint,CoH_OKWPaint,CoH_EBPPaint,CoH_ERPPaint,CoH_StuGPaint,CoH_MetalCore,CoH_MetalECC,CoH_MetalOKW,CoH_MetalEBP,CoH_MetalERP,CoH_MetalStuG,
Steve Cone,steve@lulugameshop.com,,4843478130,1974 SW Capeador St,,,Port St Lucie,,34953,US,1,0,0,0,1,1,0,0,1,0,0,0,0,0,0,0,0,0,0,0,0,0,0,0,0,0,0,0,0,0,0,0,0,
David Coomes,xixdelta@yahoo.com,,480-280-9995,18767 W Medlock Dr,,,Litchfield Park,,85340,US,1,0,1,0,1,1,0,0,0,0,0,1,0,0,0,0,0,0,0,0,0,0,0,1,1,1,1,0,0,0,0,0,0,
Brett Schmadeka,brettschma@gmail.com,,5417605574,34460 Tennessee Rd.,,,Lebanon,,50112,US,1,0,1,0,1,1,0,0,1,0,0,0,0,0,0,0,0,0,0,0,0,0,0,0,0,0,0,0,0,0,0,0,0,
Helen F Rogers,hfmr1953@yahoo.com,,410.736.0574,714 W. Ring Factory Rd,,,Bel Air,,21015,US,1,0,0,0,0,1,0,0,1,0,0,0,0,0,0,0,0,0,0,0,0,0,0,0,0,0,0,0,0,0,0,0,0,
William Ramos ,rwm36@outlook.com,,8455424721,36 Pacer Drive ,,,Newburgh ,,12550,US,1,0,0,0,1,0,0,0,0,0,0,0,0,0,0,0,0,0,0,0,0,0,0,0,0,0,0,0,0,0,0,0,0,
Cory Hoeksema,clhoeksema@yahoo.com,,3474078579,220 Valley Rd CH76433,CH76433,,Wilmington,,19804-1312,US,0,1,0,0,0,0,0,0,0,0,0,0,0,0,0,0,0,0,0,0,0,0,0,0,0,0,0,0,0,0,0,0,0,
Jon-Pol W Martin,sparcks2426@gmail.com,,5617136303,4556 concordia ln,,,boynton beach,,33436,US,1,0,1,1,1,1,1,0,0,1,1,1,0,0,0,0,0,0,0,0,0,0,0,0,0,0,0,0,0,0,0,0,0,
Mark Mastroianni,ipitythe-fool@hotmail.com,,908-625-3807,9 Claire Drive,,,Bridgewater,,8807,US,2,0,2,2,2,2,2,0,0,2,2,2,0,0,0,0,0,0,0,0,0,0,0,0,0,0,0,0,0,0,0,0,0,
Sandy Yorke,tribe303@gmail.com,,6137002444,1330 Richmond Rd,Apartment 207,,Ottawa,Ontario,K2B 8J6,CA,1,0,1,0,1,1,1,1,1,0,0,0,0,0,0,0,0,0,0,0,0,0,0,0,0,0,0,0,0,0,0,0,0,
Chris Lockley,christo@shaw.ca,,2508825830,PO BOX 99900 UY 644 326,RPO QUADRA VILLAGE,,Victoria,British Columbia,V8T 0B7,CA,1,0,1,1,1,1,0,1,1,1,0,1,0,0,0,0,0,0,0,0,0,0,0,0,0,0,0,0,0,0,0,0,0,
Shalomi Abraham,shalomiabraham@me.com,,416 666 1052,138 Glen Park Ave,,,Toronto,Ontario ,M6B2C5 ,CA,1,0,0,0,0,0,0,0,1,0,0,0,0,0,0,0,0,0,0,0,0,0,0,0,0,0,0,0,0,0,0,0,0,
west end comcis/ kirk sutterfield,kirk@westendcomics.ca,,416 588 5475,1590 queen st west,,,toronto,on,M6R 1A8,CA,4,2,1,1,2,3,2,2,3,2,0,1,0,0,0,0,0,0,0,0,0,0,0,0,0,0,0,0,0,0,0,0,0,
Bruno Penna Barbosa de Almeida,amarante0212@outlook.com,,226 792 5558 ,38 Rutherford Dr,,,Stratford,Ontario,N5A 6S2,CA,0,0,0,0,0,0,0,-1,0,0,0,0,0,0,0,0,0,0,0,0,0,0,0,0,0,0,0,0,0,0,1,0,0,
Vahe Mirzoyan,vahe.mirzoyan2@gmail.com,,4168905208,1008-100 rowena drive,,,Toronto ,Ontario ,M3a1r1 ,CA,0,0,0,0,0,0,0,0,0,0,0,0,1,0,0,0,0,0,0,0,0,0,0,0,0,0,0,0,0,0,0,0,0,
Jeff Vanasse,jeff1_vanasse@hotmail.com,,819 668 5720,1105 Rue Notre-Dame Sud,,,Louiseville,Quebec,J5V 2L4,CA,0,0,0,0,0,0,0,1,0,0,0,0,0,0,0,1,0,0,0,0,0,0,0,0,0,0,0,0,0,0,0,0,0,
Jorge Mauricio Dawbarn,mauriciodawbarn88@gmail.com,,+5492616378098,Las Tunas 2300 Barrio Arausal Mza B Casa 18,,,Godoy Cruz,Mendoza,5501,AR,1,0,0,0,0,0,0,0,0,0,0,0,0,0,0,0,0,0,0,0,0,0,0,0,0,0,0,0,0,0,0,0,0,
Elias Pascual Diaz,eliasdiaz476@gmail.com,,+543816163468,Av. Fracisco De Aguirre 3100,,,San Miguel De Tucuman,Tucuman,4000,AR,1,0,1,1,1,1,1,0,0,1,1,1,0,0,0,0,0,0,0,0,0,0,0,0,0,0,0,0,0,0,0,0,0,
Eduardo Daniel Martinez Garza ,eduardo.martinezg92@hotmail.com,,8118129251,Olivos 829 colonia hacienda los morales segundo sector,,,San Nicolas de los Garza ,Nuevo Leon ,66495,MX,1,0,1,1,1,1,1,0,0,1,1,1,0,0,0,0,0,0,0,1,0,0,0,0,0,0,0,0,0,0,0,0,0,
Felipe dos Santos Borges,felipe14df@hotmail.com,,+5561996638822,Quadra i 8 Conjunto R 34,,,Brasilia,Distrito Federal,71010185,BR,1,0,0,0,0,0,0,0,0,0,0,0,0,0,0,0,0,0,0,0,0,0,0,0,0,0,0,0,0,0,0,0,0,
Juan Manuel Garrubba,juanmag24@gmail.com,,011 57531982,Belgrano 4969,,,Caseros - Partido de Tres de Febrero,Buenos Aires,1678,AR,1,0,0,0,2,1,1,0,0,0,0,0,0,0,0,0,0,0,0,1,0,0,0,0,0,0,0,0,0,0,0,0,0,
Chrysttian Bhryan da Cunha Oliveira,chrysttianbhryan@hotmail.com.br,,55062993694953,Av. Mangalo 913,Qd. 71 Lt. 26 ,CPF 70774561106,Goiania,Goias,74475115,BR,1,0,1,1,1,1,1,0,0,1,1,1,0,0,0,0,0,0,0,0,0,0,0,0,0,0,0,0,0,0,0,0,0,
